v -7.70075526578513e-18 -1.683456857232621 -1.0798023012739262
v -7.70075526578513e-18 -1.683456857232621 -0.03936874491008708
v -7.70075526578513e-18 1.683456857232621 -1.0798023012739262
v -7.70075526578513e-18 1.683456857232621 -0.03936874491008708
v -0.98951111355197 -1.3619452067982298 -1.0798023012739262
v -0.98951111355197 -1.3619452067982298 -0.03936874491008708
v -0.98951111355197 1.3619452067982298 -1.0798023012739262
v -0.98951111355197 1.3619452067982298 -0.03936874491008708
v 0.98951111355197 -1.3619452067982298 -1.0798023012739262
v 0.98951111355197 -1.3619452067982298 -0.03936874491008708
v 0.98951111355197 1.3619452067982298 -1.0798023012739262
v 0.98951111355197 1.3619452067982298 -0.03936874491008708
v -1.601062613972844 -0.5202167781819195 -1.0798023012739262
v -1.601062613972844 -0.5202167781819195 -0.03936874491008708
v -1.601062613972844 0.5202167781819195 -1.0798023012739262
v -1.601062613972844 0.5202167781819195 -0.03936874491008708
v 1.601062613972844 -0.5202167781819195 -1.0798023012739262
v 1.601062613972844 -0.5202167781819195 -0.03936874491008708
v 1.601062613972844 0.5202167781819195 -1.0798023012739262
v 1.601062613972844 0.5202167781819195 -0.03936874491008708
v 1.4320339364307137 0.0 0.8456769008474001
v 0.4425228228787436 -1.3619452067982298 0.8456769008474001
v 0.4425228228787436 1.3619452067982298 0.8456769008474001
v -1.1585397910941007 -0.8417284286163105 0.8456769008474001
v -1.1585397910941007 0.8417284286163105 0.8456769008474001
v -0.8850456457574872 0.0 1.3926651915206265
v -0.27349414533661315 -0.8417284286163105 1.3926651915206265
v -0.27349414533661315 0.8417284286163105 1.3926651915206265
v 0.7160169682153569 -0.5202167781819195 1.3926651915206265
v 0.7160169682153569 0.5202167781819195 1.3926651915206265

f 28 26 27 29 30
f 25 26 28
f 24 27 26
f 22 29 27
f 21 30 29
f 23 28 30
f 12 4 23
f 8 16 25
f 14 6 24
f 2 10 22
f 18 20 21
f 4 8 25 28 23
f 16 14 24 26 25
f 6 2 22 27 24
f 10 18 21 29 22
f 20 12 23 30 21
f 19 17 9 1 5 13 15 7 3 11
f 11 3 4 12
f 3 7 8 4
f 7 15 16 8
f 15 13 14 16
f 13 5 6 14
f 5 1 2 6
f 1 9 10 2
f 9 17 18 10
f 17 19 20 18
f 19 11 12 20
