v -1.5180278287809727e-17 -0.966839768183812 1.2439908317399793
v -1.5180278287809727e-17 0.966839768183812 1.2439908317399793
v -1.5180278287809727e-17 -1.7864869460859623 -0.8991464794261571
v -1.5180278287809727e-17 1.7864869460859623 -0.8991464794261571
v -0.966839768183812 0.0 1.2439908317399793
v 0.966839768183812 0.0 1.2439908317399793
v -1.650498724587415 -0.6836589564036031 0.27715106355616737
v -1.7864869460859623 0.0 -0.8991464794261571
v 1.7864869460859623 0.0 -0.8991464794261571
v -1.2632370340786299 -1.2632370340786299 -0.8991464794261571
v -1.2632370340786299 1.2632370340786299 -0.8991464794261571
v 1.2632370340786299 -1.2632370340786299 -0.8991464794261571
v 1.2632370340786299 1.2632370340786299 -0.8991464794261571
v -0.6836589564036031 -1.650498724587415 0.27715106355616737
v 0.6836589564036031 1.650498724587415 0.27715106355616737
v 0.6836589564036031 -1.650498724587415 0.27715106355616737
v -0.6836589564036031 1.650498724587415 0.27715106355616737
v 1.650498724587415 -0.6836589564036031 0.27715106355616737
v -1.650498724587415 0.6836589564036031 0.27715106355616737
v 1.650498724587415 0.6836589564036031 0.27715106355616737

f 11 4 13 9 12 3 10 8
f 8 10 7
f 10 3 14
f 3 12 16
f 12 9 18
f 9 13 20
f 13 4 15
f 4 11 17
f 11 8 19
f 10 14 7
f 3 16 14
f 12 18 16
f 9 20 18
f 13 15 20
f 4 17 15
f 11 19 17
f 8 7 19
f 2 5 1 6
f 5 2 17 19
f 1 5 7 14
f 6 1 16 18
f 2 6 20 15
f 15 17 2
f 19 7 5
f 14 16 1
f 18 20 6
