v -1.6198667341635402 -2.778701432721737e-18 -0.4316869200237105
v -1.5405848130559843 -0.5005663494791791 0.4316869200237106
v -1.5405848130559843 0.5005663494791791 0.4316869200237106
v -1.3104997165609493 -0.9521337770205008 -0.4316869200237105
v -1.3104997165609493 0.4258071698182935 -1.2833012596602975
v -1.3104997165609493 0.9521337770205008 -0.4316869200237105
v -1.1147776432376908 -0.80993336708177 1.2833012596602975
v -1.1147776432376908 0.80993336708177 1.2833012596602975
v -0.952133777020501 -1.310499716560949 0.4316869200237106
v -0.952133777020501 1.310499716560949 0.4316869200237106
v -0.8516143396365871 -2.778701432721737e-18 1.8096278668625048
v -0.8099333670817701 -1.1147776432376906 -1.2833012596602975
v -0.8099333670817701 -0.26316330360110374 -1.8096278668625048
v -0.5005663494791792 -1.540584813055984 -0.4316869200237105
v -0.5005663494791792 0.6889704734193972 -1.8096278668625048
v -0.5005663494791792 1.540584813055984 -0.4316869200237105
v -0.26316330360110385 -0.80993336708177 1.8096278668625048
v -0.26316330360110385 0.80993336708177 1.8096278668625048
v -1.278202659051999e-16 -1.61986673416354 0.4316869200237106
v -1.278202659051999e-16 -0.851614339636587 -1.8096278668625048
v -1.278202659051999e-16 1.3779409468387944 -1.2833012596602975
v -1.278202659051999e-16 1.61986673416354 0.4316869200237106
v 0.42580716981829336 -1.310499716560949 1.2833012596602975
v 0.42580716981829336 1.310499716560949 1.2833012596602975
v 0.500566349479179 -1.540584813055984 -0.4316869200237105
v 0.500566349479179 0.6889704734193972 -1.8096278668625048
v 0.500566349479179 1.540584813055984 -0.4316869200237105
v 0.6889704734193971 -0.5005663494791791 1.8096278668625048
v 0.6889704734193971 0.5005663494791791 1.8096278668625048
v 0.8099333670817699 -1.1147776432376906 -1.2833012596602975
v 0.8099333670817699 -0.26316330360110374 -1.8096278668625048
v 0.9521337770205007 -1.310499716560949 0.4316869200237106
v 0.9521337770205007 1.310499716560949 0.4316869200237106
v 1.3104997165609489 -0.9521337770205008 -0.4316869200237105
v 1.3104997165609489 0.4258071698182935 -1.2833012596602975
v 1.3104997165609489 0.9521337770205008 -0.4316869200237105
v 1.3779409468387942 -2.778701432721737e-18 1.2833012596602975
v 1.5405848130559838 -0.5005663494791791 0.4316869200237106
v 1.5405848130559838 0.5005663494791791 0.4316869200237106
v 1.6198667341635398 -2.778701432721737e-18 -0.4316869200237105

f 18 11 17 28 29
f 8 11 18
f 7 17 11
f 23 28 17
f 37 29 28
f 24 18 29
f 33 22 24
f 10 3 8
f 2 9 7
f 19 32 23
f 38 39 37
f 22 10 8 18 24
f 3 2 7 11 8
f 9 19 23 17 7
f 32 38 37 28 23
f 39 33 24 29 37
f 26 31 20 13 15
f 15 13 5
f 13 20 12
f 20 31 30
f 31 26 35
f 26 15 21
f 21 16 27
f 5 1 6
f 12 14 4
f 30 34 25
f 35 36 40
f 21 15 5 6 16
f 5 13 12 4 1
f 12 20 30 25 14
f 30 31 35 40 34
f 35 26 21 27 36
f 38 40 39
f 32 34 38
f 19 25 32
f 9 14 19
f 2 4 9
f 3 1 2
f 10 6 3
f 22 16 10
f 33 27 22
f 39 36 33
f 39 40 36
f 38 34 40
f 32 25 34
f 19 14 25
f 9 4 14
f 2 1 4
f 3 6 1
f 10 16 6
f 22 27 16
f 33 36 27
