v 0.0 -1.0651982281631884 0.7101321521087923
v 0.0 1.0651982281631884 0.7101321521087923
v -1.0651982281631884 0.0 0.7101321521087923
v 1.0651982281631884 0.0 0.7101321521087923
v 0.7532088904420858 1.8184071186052742 -0.3550660760543962
v -0.7532088904420858 1.8184071186052742 -0.3550660760543962
v -1.8184071186052742 0.7532088904420858 -0.3550660760543962
v -1.8184071186052742 -0.7532088904420858 -0.3550660760543962
v -0.7532088904420858 -1.8184071186052742 -0.3550660760543962
v 0.7532088904420858 -1.8184071186052742 -0.3550660760543962
v 1.8184071186052742 -0.7532088904420858 -0.3550660760543962
v 1.8184071186052742 0.7532088904420858 -0.3550660760543962

f 2 3 1 4
f 12 11 10 9 8 7 6 5
f 3 2 6 7
f 1 3 8 9
f 4 1 10 11
f 2 4 12 5
f 5 6 2
f 7 8 3
f 9 10 1
f 11 12 4
