v -0.5797958971132712 -1.0042359518201631 -1.0042359518201631
v -0.5797958971132712 -1.0042359518201631 1.0042359518201631
v -0.5797958971132712 1.0042359518201631 -1.0042359518201631
v -0.5797958971132712 1.0042359518201631 1.0042359518201631
v 1.1595917942265423 0.0 -1.0042359518201631
v 1.1595917942265423 0.0 1.0042359518201631
v -2.0 0.0 0.0
v 1.0 -1.7320508075688772 0.0
v 1.0 1.7320508075688772 0.0

f 1 3 5
f 6 4 2
f 9 5 3
f 9 3 4
f 9 4 6
f 9 6 5
f 7 3 1
f 7 1 2
f 7 2 4
f 7 4 3
f 8 1 5
f 8 5 6
f 8 6 2
f 8 2 1
