v -0.963897668530599 0.0 -1.3668396556531694
v -0.963897668530599 0.0 1.752398723065409
v 0.0 -1.5596191893592892 -0.7711181348244792
v 0.0 1.5596191893592892 -0.7711181348244792
v 0.963897668530599 0.0 -1.3668396556531694
v 0.963897668530599 0.0 1.752398723065409
v -1.5596191893592892 -0.963897668530599 0.1927795337061198
v -1.5596191893592892 0.963897668530599 0.1927795337061198
v 1.5596191893592892 -0.963897668530599 0.1927795337061198
v 1.5596191893592892 0.963897668530599 0.1927795337061198

f 7 8 1
f 7 1 3
f 7 2 8
f 8 4 1
f 1 4 5
f 1 5 3
f 3 5 9
f 4 10 5
f 5 10 9
f 6 9 10
f 9 6 2 7 3
f 4 8 2 6 10
