v -0.07702846600878684 0.3158078774332195 1.7241368401354666
v -0.07702846600878684 0.3158078774332195 -1.9734061923424324
v -0.07702846600878684 -0.3158078774332195 1.7241368401354666
v -0.07702846600878684 -0.3158078774332195 -1.9734061923424324
v 1.7717430502301625 0.0 0.19117320132973645
v 1.7717430502301625 0.0 -0.4404425535367025
v -1.9257999822477365 0.0 0.19117320132973645
v -1.9257999822477365 0.0 -0.4404425535367025
v 0.23877941142443262 1.8487715162389495 -0.12463467610348303
v 0.23877941142443262 -1.8487715162389495 -0.12463467610348303
v -0.3928363434420063 1.8487715162389495 -0.12463467610348303
v -0.3928363434420063 -1.8487715162389495 -0.12463467610348303
v 0.23877941142443262 0.8267957570351295 1.528956837966776
v 0.23877941142443262 0.8267957570351295 -1.778226190173742
v 0.23877941142443262 -0.8267957570351295 1.528956837966776
v 0.23877941142443262 -0.8267957570351295 -1.778226190173742
v -0.3928363434420063 0.8267957570351295 1.528956837966776
v -0.3928363434420063 0.8267957570351295 -1.778226190173742
v -0.3928363434420063 -0.8267957570351295 1.528956837966776
v -0.3928363434420063 -0.8267957570351295 -1.778226190173742
v 1.576563048061472 0.3158078774332195 0.7021610809316464
v 1.576563048061472 0.3158078774332195 -0.9514304331386126
v 1.576563048061472 -0.3158078774332195 0.7021610809316464
v 1.576563048061472 -0.3158078774332195 -0.9514304331386126
v -1.7306199800790458 0.3158078774332195 0.7021610809316464
v -1.7306199800790458 0.3158078774332195 -0.9514304331386126
v -1.7306199800790458 -0.3158078774332195 0.7021610809316464
v -1.7306199800790458 -0.3158078774332195 -0.9514304331386126
v 0.7497672910263425 1.653591514070259 0.19117320132973645
v 0.7497672910263425 1.653591514070259 -0.4404425535367025
v 0.7497672910263425 -1.653591514070259 0.19117320132973645
v 0.7497672910263425 -1.653591514070259 -0.4404425535367025
v -0.9038242230439164 1.653591514070259 0.19117320132973645
v -0.9038242230439164 1.653591514070259 -0.4404425535367025
v -0.9038242230439164 -1.653591514070259 0.19117320132973645
v -0.9038242230439164 -1.653591514070259 -0.4404425535367025
v 0.7497672910263425 1.0219757592038201 1.2131489605335564
v 0.7497672910263425 1.0219757592038201 -1.4624183127405226
v 0.7497672910263425 -1.0219757592038201 1.2131489605335564
v 0.7497672910263425 -1.0219757592038201 -1.4624183127405226
v -0.9038242230439164 1.0219757592038201 1.2131489605335564
v -0.9038242230439164 1.0219757592038201 -1.4624183127405226
v -0.9038242230439164 -1.0219757592038201 1.2131489605335564
v -0.9038242230439164 -1.0219757592038201 -1.4624183127405226
v 1.2607551706282527 0.8267957570351295 0.897341083100337
v 1.2607551706282527 0.8267957570351295 -1.1466104353073032
v 1.2607551706282527 -0.8267957570351295 0.897341083100337
v 1.2607551706282527 -0.8267957570351295 -1.1466104353073032
v -1.4148121026458265 0.8267957570351295 0.897341083100337
v -1.4148121026458265 0.8267957570351295 -1.1466104353073032
v -1.4148121026458265 -0.8267957570351295 0.897341083100337
v -1.4148121026458265 -0.8267957570351295 -1.1466104353073032
v 0.9449472931950331 1.3377836366370395 0.7021610809316464
v 0.9449472931950331 1.3377836366370395 -0.9514304331386126
v 0.9449472931950331 -1.3377836366370395 0.7021610809316464
v 0.9449472931950331 -1.3377836366370395 -0.9514304331386126
v -1.0990042252126069 1.3377836366370395 0.7021610809316464
v -1.0990042252126069 1.3377836366370395 -0.9514304331386126
v -1.0990042252126069 -1.3377836366370395 0.7021610809316464
v -1.0990042252126069 -1.3377836366370395 -0.9514304331386126
v 0.4673001383181024 0.0 1.778083265950037
v 0.7831080157513219 -0.5109878796019101 1.5829032637813465
v 1.294095895353232 -0.3158078774332195 1.267095386348127
v 1.294095895353232 0.3158078774332195 1.267095386348127
v 0.7831080157513219 0.5109878796019101 1.5829032637813465

f 2 18 14
f 1 13 17
f 46 38 54
f 30 9 29
f 8 26 28
f 34 33 11
f 65 37 13
f 59 43 51
f 7 27 25
f 12 35 36
f 39 62 15
f 3 19 15
f 64 21 45
f 53 37 45
f 23 5 21
f 22 6 24
f 50 58 42
f 61 1 3
f 57 49 41
f 44 60 52
f 55 47 39
f 63 47 23
f 4 16 20
f 40 48 56
f 10 32 31
f 18 42 58 34 11 9 30 54 38 14
f 45 37 65 64
f 13 37 53 29 9 11 33 57 41 17
f 63 23 21 64
f 29 53 45 21 5 6 22 46 54 30
f 26 50 42 18 2 4 20 44 52 28
f 64 65 61 62 63
f 61 3 15 62
f 13 1 61 65
f 34 58 50 26 8 7 25 49 57 33
f 27 51 43 19 3 1 17 41 49 25
f 35 59 51 27 7 8 28 52 60 36
f 62 39 47 63
f 19 43 59 35 12 10 31 55 39 15
f 24 48 40 16 4 2 14 38 46 22
f 16 40 56 32 10 12 36 60 44 20
f 32 56 48 24 6 5 23 47 55 31
