v 0.04153956166301786 0.35949712932413763 1.8198164603659108
v 0.04153956166301786 0.35949712932413763 -1.9028955836919468
v 0.04153956166301786 -0.276418005998102 1.8198164603659108
v 0.04153956166301786 -0.276418005998102 -1.9028955836919468
v 1.9028955836919468 0.04153956166301785 0.276418005998102
v 1.9028955836919468 0.04153956166301785 -0.35949712932413763
v -1.8198164603659108 0.04153956166301785 0.276418005998102
v -1.8198164603659108 0.04153956166301785 -0.35949712932413763
v 0.35949712932413763 1.9028955836919468 -0.04153956166301785
v 0.35949712932413763 -1.8198164603659108 -0.04153956166301785
v -0.27641800599810196 1.9028955836919468 -0.04153956166301785
v -0.27641800599810196 -1.8198164603659108 -0.04153956166301785
v 0.35949712932413763 0.8739632807800739 1.6233078765710942
v 0.35949712932413763 0.8739632807800739 -1.7063869998971302
v 0.35949712932413763 -0.7908841574540383 1.6233078765710942
v 0.35949712932413763 -0.7908841574540383 -1.7063869998971302
v -0.27641800599810196 0.8739632807800739 1.6233078765710942
v -0.27641800599810196 0.8739632807800739 -1.7063869998971302
v -0.27641800599810196 -0.7908841574540383 1.6233078765710942
v -0.27641800599810196 -0.7908841574540383 -1.7063869998971302
v 1.7063869998971302 0.35949712932413763 0.7908841574540383
v 1.7063869998971302 0.35949712932413763 -0.8739632807800739
v 1.7063869998971302 -0.276418005998102 0.7908841574540383
v 1.7063869998971302 -0.276418005998102 -0.8739632807800739
v -1.6233078765710942 0.35949712932413763 0.7908841574540383
v -1.6233078765710942 0.35949712932413763 -0.8739632807800739
v -1.6233078765710942 -0.276418005998102 0.7908841574540383
v -1.6233078765710942 -0.276418005998102 -0.8739632807800739
v 0.8739632807800739 1.7063869998971302 0.276418005998102
v 0.8739632807800739 1.7063869998971302 -0.35949712932413763
v 0.8739632807800739 -1.6233078765710942 0.276418005998102
v 0.8739632807800739 -1.6233078765710942 -0.35949712932413763
v -0.7908841574540383 1.7063869998971302 0.276418005998102
v -0.7908841574540383 1.7063869998971302 -0.35949712932413763
v -0.7908841574540383 -1.6233078765710942 0.276418005998102
v -0.7908841574540383 -1.6233078765710942 -0.35949712932413763
v 0.8739632807800739 1.0704718645748905 1.3053503089099745
v 0.8739632807800739 1.0704718645748905 -1.3884294322360105
v 0.8739632807800739 -0.9873927412488548 1.3053503089099745
v 0.8739632807800739 -0.9873927412488548 -1.3884294322360105
v -0.7908841574540383 1.0704718645748905 1.3053503089099745
v -0.7908841574540383 1.0704718645748905 -1.3884294322360105
v -0.7908841574540383 -0.9873927412488548 1.3053503089099745
v -0.7908841574540383 -0.9873927412488548 -1.3884294322360105
v 1.3884294322360105 0.8739632807800739 0.9873927412488548
v 1.3884294322360105 0.8739632807800739 -1.0704718645748905
v 1.3884294322360105 -0.7908841574540383 0.9873927412488548
v 1.3884294322360105 -0.7908841574540383 -1.0704718645748905
v -1.3053503089099745 0.8739632807800739 0.9873927412488548
v -1.3053503089099745 0.8739632807800739 -1.0704718645748905
v -1.3053503089099745 -0.7908841574540383 0.9873927412488548
v -1.3053503089099745 -0.7908841574540383 -1.0704718645748905
v 1.0704718645748905 1.3884294322360105 0.7908841574540383
v 1.0704718645748905 1.3884294322360105 -0.8739632807800739
v 1.0704718645748905 -1.3053503089099745 0.7908841574540383
v 1.0704718645748905 -1.3053503089099745 -0.8739632807800739
v -0.9873927412488548 1.3884294322360105 0.7908841574540383
v -0.9873927412488548 1.3884294322360105 -0.8739632807800739
v -0.9873927412488548 -1.3053503089099745 0.7908841574540383
v -0.9873927412488548 -1.3053503089099745 -0.8739632807800739
v 0.5895733866797729 0.04153956166301785 1.8741300971105765
v 0.9075309543408927 -0.47292658979291846 1.6776215133157601
v 1.4219971057968293 -0.276418005998102 1.3596639456546402
v 1.4219971057968293 0.35949712932413763 1.3596639456546402
v 0.9075309543408927 0.5560057131189541 1.6776215133157601
v 0.04153956166301786 -1.8741300971105765 -0.5895733866797729
v -0.47292658979291846 -1.6776215133157601 -0.9075309543408927
v -0.27641800599810196 -1.3596639456546402 -1.4219971057968293
v 0.35949712932413763 -1.3596639456546402 -1.4219971057968293
v 0.5560057131189541 -1.6776215133157601 -0.9075309543408927
v -1.8741300971105765 0.5895733866797729 -0.04153956166301785
v -1.6776215133157601 0.9075309543408927 0.47292658979291846
v -1.3596639456546402 1.4219971057968293 0.276418005998102
v -1.3596639456546402 1.4219971057968293 -0.35949712932413763
v -1.6776215133157601 0.9075309543408927 -0.5560057131189541

f 58 42 50
f 68 44 20
f 52 44 60
f 56 32 70
f 12 66 10
f 32 31 10
f 5 21 23
f 39 62 15
f 28 8 26
f 75 50 26
f 6 24 22
f 46 38 54
f 30 9 29
f 2 18 14
f 7 71 8
f 25 7 27
f 51 59 43
f 20 4 16
f 63 47 23
f 55 47 39
f 57 49 41
f 25 49 72
f 57 33 73
f 16 40 69
f 40 48 56
f 36 12 35
f 67 36 60
f 13 65 37
f 13 17 1
f 3 61 1
f 3 19 15
f 53 37 45
f 64 21 45
f 34 58 74
f 11 34 33
f 70 32 10 66
f 60 44 68 67
f 75 26 8 71
f 72 71 7 25
f 26 50 42 18 2 4 20 44 52 28
f 69 70 66 67 68
f 68 20 16 69
f 43 59 35 12 10 31 55 39 15 19
f 32 56 48 24 6 5 23 47 55 31
f 62 39 47 63
f 72 49 57 73
f 24 48 40 16 4 2 14 38 46 22
f 69 40 56 70
f 66 12 36 67
f 35 59 51 27 7 8 28 52 60 36
f 13 1 61 65
f 27 51 43 19 3 1 17 41 49 25
f 61 3 15 62
f 74 75 71 72 73
f 58 50 75 74
f 13 37 53 29 9 11 33 57 41 17
f 29 53 45 21 5 6 22 46 54 30
f 64 65 61 62 63
f 63 23 21 64
f 45 37 65 64
f 18 42 58 34 11 9 30 54 38 14
f 73 33 34 74
