v 0.4478379595890265 0.4478379595890265 1.89707203972392
v 0.4478379595890265 0.4478379595890265 -1.89707203972392
v 0.4478379595890265 -0.4478379595890265 1.89707203972392
v 0.4478379595890265 -0.4478379595890265 -1.89707203972392
v -0.4478379595890265 0.4478379595890265 1.89707203972392
v -0.4478379595890265 0.4478379595890265 -1.89707203972392
v -0.4478379595890265 -0.4478379595890265 1.89707203972392
v -0.4478379595890265 -0.4478379595890265 -1.89707203972392
v 1.89707203972392 0.4478379595890265 0.4478379595890265
v 1.89707203972392 0.4478379595890265 -0.4478379595890265
v 1.89707203972392 -0.4478379595890265 0.4478379595890265
v 1.89707203972392 -0.4478379595890265 -0.4478379595890265
v -1.89707203972392 0.4478379595890265 0.4478379595890265
v -1.89707203972392 0.4478379595890265 -0.4478379595890265
v -1.89707203972392 -0.4478379595890265 0.4478379595890265
v -1.89707203972392 -0.4478379595890265 -0.4478379595890265
v 0.0 1.9735718960931667 0.32405859184909996
v 0.4478379595890265 1.89707203972392 -0.4478379595890265
v 0.4478379595890265 -1.89707203972392 0.4478379595890265
v 0.4478379595890265 -1.89707203972392 -0.4478379595890265
v -0.7246170400674468 1.6967928156147467 0.7718965514381264
v -0.4478379595890265 1.89707203972392 -0.4478379595890265
v -0.4478379595890265 -1.89707203972392 0.4478379595890265
v -0.4478379595890265 -1.89707203972392 -0.4478379595890265
v 0.4478379595890265 1.2489548560257202 1.4965135915055732
v 0.0 1.1724549996564733 -1.6202929592454998
v 0.0 -1.1724549996564733 1.6202929592454998
v 0.0 -1.1724549996564733 -1.6202929592454998
v 1.6202929592454998 1.325866704098367e-17 1.1724549996564733
v 1.6202929592454998 1.325866704098367e-17 -1.1724549996564733
v -1.6202929592454998 1.325866704098367e-17 1.1724549996564733
v -1.6202929592454998 1.325866704098367e-17 -1.1724549996564733
v 1.1724549996564733 1.6202929592454998 6.629333520491835e-18
v 1.1724549996564733 -1.6202929592454998 6.629333520491835e-18
v -1.1724549996564733 1.6202929592454998 6.629333520491835e-18
v -1.1724549996564733 -1.6202929592454998 6.629333520491835e-18
v 1.1724549996564733 0.7246170400674468 1.4492340801348935
v 1.1724549996564733 0.7246170400674468 -1.4492340801348935
v 1.1724549996564733 -0.7246170400674468 1.4492340801348935
v 1.1724549996564733 -0.7246170400674468 -1.4492340801348935
v -1.1724549996564733 0.7246170400674468 1.4492340801348935
v -1.1724549996564733 0.7246170400674468 -1.4492340801348935
v -1.1724549996564733 -0.7246170400674468 1.4492340801348935
v -1.1724549996564733 -0.7246170400674468 -1.4492340801348935
v 1.4492340801348935 1.1724549996564733 0.7246170400674468
v 1.4492340801348935 1.1724549996564733 -0.7246170400674468
v 1.4492340801348935 -1.1724549996564733 0.7246170400674468
v 1.4492340801348935 -1.1724549996564733 -0.7246170400674468
v -1.4492340801348935 1.1724549996564733 0.7246170400674468
v -1.4492340801348935 1.1724549996564733 -0.7246170400674468
v -1.4492340801348935 -1.1724549996564733 0.7246170400674468
v -1.4492340801348935 -1.1724549996564733 -0.7246170400674468
v 0.7246170400674468 1.6967928156147467 0.7718965514381264
v 0.7246170400674468 1.4492340801348935 -1.1724549996564733
v 0.7246170400674468 -1.4492340801348935 1.1724549996564733
v 0.7246170400674468 -1.4492340801348935 -1.1724549996564733
v -0.4478379595890265 1.2489548560257202 1.4965135915055732
v -0.7246170400674468 1.4492340801348935 -1.1724549996564733
v -0.7246170400674468 -1.4492340801348935 1.1724549996564733
v -0.7246170400674468 -1.4492340801348935 -1.1724549996564733

f 26 2 6
f 25 1 37
f 39 55 47
f 34 19 20
f 22 17 18
f 21 35 49
f 57 41 5
f 54 46 38
f 30 10 12
f 11 9 29
f 33 53 45
f 43 51 59
f 40 48 56
f 58 42 50
f 23 36 24
f 16 14 32
f 4 28 8
f 27 3 7
f 52 44 60
f 13 15 31
f 37 29 9 45
f 5 1 25 57
f 53 25 37 45
f 55 19 34 47
f 48 34 20 56
f 21 17 22 35
f 25 53 17 21 57
f 57 21 49 41
f 49 13 31 41
f 50 14 13 49 35
f 50 35 22 58
f 58 22 18 54 26
f 38 2 26 54
f 46 10 30 38
f 10 9 11 12
f 48 12 11 47 34
f 47 11 29 39
f 54 18 33 46
f 33 18 17 53
f 33 45 9 10 46
f 29 37 1 3 39
f 40 30 12 48
f 32 42 6 8 44
f 58 26 6 42
f 32 14 50 42
f 43 7 5 41 31
f 3 1 5 7
f 28 56 20 24 60
f 44 8 28 60
f 51 36 23 59
f 20 19 23 24
f 6 2 4 8
f 40 4 2 38 30
f 56 28 4 40
f 59 23 19 55 27
f 39 3 27 55
f 59 27 7 43
f 60 24 36 52
f 52 16 32 44
f 31 15 51 43
f 15 13 14 16
f 36 51 15 16 52
