v -1.0754878826808045 0.0 -1.6862164197417722
v 0.0 -1.0754878826808045 1.6862164197417722
v 0.0 1.0754878826808045 1.6862164197417722
v 0.0 -1.3864851504383833 -0.44215794644014556
v 0.0 1.3864851504383833 -0.44215794644014556
v 1.0754878826808045 0.0 -1.6862164197417722
v -1.3864851504383833 0.0 0.44215794644014583
v 1.3864851504383833 0.0 0.44215794644014583

f 2 3 7
f 3 2 8
f 4 2 7
f 2 4 8
f 6 8 4
f 4 1 6
f 7 1 4
f 3 5 7
f 8 5 3
f 5 8 6
f 5 6 1
f 5 1 7
