v 0.347727210262747 -0.306999988542358 1.9454657011311913
v 0.347727210262747 0.306999988542358 -1.9454657011311913
v -0.347727210262747 0.306999988542358 1.9454657011311913
v -0.347727210262747 -0.306999988542358 -1.9454657011311913
v 1.9454657011311913 -0.347727210262747 0.306999988542358
v 1.9454657011311913 0.347727210262747 -0.306999988542358
v -1.9454657011311913 0.347727210262747 0.306999988542358
v -1.9454657011311913 -0.347727210262747 -0.306999988542358
v 0.306999988542358 -1.9454657011311913 0.347727210262747
v 0.306999988542358 1.9454657011311913 -0.347727210262747
v -0.306999988542358 1.9454657011311913 0.347727210262747
v -0.306999988542358 -1.9454657011311913 -0.347727210262747
v 0.5266773607508024 0.5965474143239401 1.8348684258376649
v 0.5266773607508024 -0.5965474143239401 -1.8348684258376649
v -0.5266773607508024 -0.5965474143239401 1.8348684258376649
v -0.5266773607508024 0.5965474143239401 -1.8348684258376649
v 1.8348684258376649 0.5266773607508024 0.5965474143239401
v 1.8348684258376649 -0.5266773607508024 -0.5965474143239401
v -1.8348684258376649 -0.5266773607508024 0.5965474143239401
v -1.8348684258376649 0.5266773607508024 -0.5965474143239401
v 0.5965474143239401 1.8348684258376649 0.5266773607508024
v 0.5965474143239401 -1.8348684258376649 -0.5266773607508024
v -0.5965474143239401 -1.8348684258376649 0.5266773607508024
v -0.5965474143239401 1.8348684258376649 -0.5266773607508024
v 0.17895015048805538 -1.1591818593422458 1.619961191082106
v 0.17895015048805538 1.1591818593422458 -1.619961191082106
v -0.17895015048805538 1.1591818593422458 1.619961191082106
v -0.17895015048805538 -1.1591818593422458 -1.619961191082106
v 1.619961191082106 -0.17895015048805538 1.1591818593422458
v 1.619961191082106 0.17895015048805538 -1.1591818593422458
v -1.619961191082106 0.17895015048805538 1.1591818593422458
v -1.619961191082106 -0.17895015048805538 -1.1591818593422458
v 1.1591818593422458 -1.619961191082106 0.17895015048805538
v 1.1591818593422458 1.619961191082106 -0.17895015048805538
v -1.1591818593422458 1.619961191082106 0.17895015048805538
v -1.1591818593422458 -1.619961191082106 -0.17895015048805538
v 1.0234137767581657 -0.7862838417889456 1.5278684372953069
v 1.0234137767581657 0.7862838417889456 -1.5278684372953069
v -1.0234137767581657 0.7862838417889456 1.5278684372953069
v -1.0234137767581657 -0.7862838417889456 -1.5278684372953069
v 1.5278684372953069 -1.0234137767581657 0.7862838417889456
v 1.5278684372953069 1.0234137767581657 -0.7862838417889456
v -1.5278684372953069 1.0234137767581657 0.7862838417889456
v -1.5278684372953069 -1.0234137767581657 -0.7862838417889456
v 0.7862838417889456 -1.5278684372953069 1.0234137767581657
v 0.7862838417889456 1.5278684372953069 -1.0234137767581657
v -0.7862838417889456 1.5278684372953069 1.0234137767581657
v -0.7862838417889456 -1.5278684372953069 -1.0234137767581657
v 1.312961202539748 0.6756865664954189 1.3489182868072516
v 1.312961202539748 -0.6756865664954189 -1.3489182868072516
v -1.312961202539748 -0.6756865664954189 1.3489182868072516
v -1.312961202539748 0.6756865664954189 -1.3489182868072516
v 1.3489182868072516 1.312961202539748 0.6756865664954189
v 1.3489182868072516 -1.312961202539748 -0.6756865664954189
v -1.3489182868072516 -1.312961202539748 0.6756865664954189
v -1.3489182868072516 1.312961202539748 -0.6756865664954189
v 0.6756865664954189 1.3489182868072516 1.312961202539748
v 0.6756865664954189 -1.3489182868072516 -1.312961202539748
v -0.6756865664954189 -1.3489182868072516 1.312961202539748
v -0.6756865664954189 1.3489182868072516 -1.312961202539748

f 1 37 29 49 13
f 2 38 30 50 14
f 3 39 31 51 15
f 4 40 32 52 16
f 5 41 33 54 18
f 6 42 34 53 17
f 7 43 35 56 20
f 8 44 36 55 19
f 9 45 25 59 23
f 10 46 26 60 24
f 11 47 27 57 21
f 12 48 28 58 22
f 1 3 15
f 2 4 16
f 3 1 13
f 4 2 14
f 5 6 17
f 6 5 18
f 7 8 19
f 8 7 20
f 9 12 22
f 10 11 21
f 11 10 24
f 12 9 23
f 13 49 57
f 14 50 58
f 15 51 59
f 16 52 60
f 17 53 49
f 18 54 50
f 19 55 51
f 20 56 52
f 21 57 53
f 22 58 54
f 23 59 55
f 24 60 56
f 25 45 37
f 26 46 38
f 27 47 39
f 28 48 40
f 29 37 41
f 30 38 42
f 31 39 43
f 32 40 44
f 33 41 45
f 34 42 46
f 35 43 47
f 36 44 48
f 37 1 25
f 38 2 26
f 39 3 27
f 40 4 28
f 41 5 29
f 42 6 30
f 43 7 31
f 44 8 32
f 45 9 33
f 46 10 34
f 47 11 35
f 48 12 36
f 49 29 17
f 50 30 18
f 51 31 19
f 52 32 20
f 53 34 21
f 54 33 22
f 55 36 23
f 56 35 24
f 57 27 13
f 58 28 14
f 59 25 15
f 60 26 16
f 25 1 15
f 26 2 16
f 27 3 13
f 28 4 14
f 29 5 17
f 30 6 18
f 31 7 19
f 32 8 20
f 33 9 22
f 34 10 21
f 35 11 24
f 36 12 23
f 37 45 41
f 38 46 42
f 39 47 43
f 40 48 44
f 49 53 57
f 50 54 58
f 51 55 59
f 52 56 60
