v 0.03514225182868842 -1.730507678598739 -0.05686135790002595
v 0.03514225182868842 1.730507678598739 -0.05686135790002595
v -0.9820246406305334 -1.4000101208827194 -0.05686135790002595
v -0.9820246406305334 1.4000101208827194 -0.05686135790002595
v 1.0523091442879102 -1.4000101208827194 -0.05686135790002595
v 1.0523091442879102 1.4000101208827194 -0.05686135790002595
v -1.6106683524014416 -0.5347562815833499 -0.05686135790002595
v -1.6106683524014416 0.5347562815833499 -0.05686135790002595
v 1.6809528560588187 -0.5347562815833499 -0.05686135790002595
v 1.6809528560588187 0.5347562815833499 -0.05686135790002595
v 1.507200007488118 0.0 -0.9666430843004412
v 1.507200007488118 0.0 0.8529203685003893
v 0.490033115028896 -1.4000101208827194 -0.9666430843004412
v 0.490033115028896 -1.4000101208827194 0.8529203685003893
v 0.490033115028896 1.4000101208827194 -0.9666430843004412
v 0.490033115028896 1.4000101208827194 0.8529203685003893
v -1.155777489201234 -0.8652538392993695 -0.9666430843004412
v -1.155777489201234 -0.8652538392993695 0.8529203685003893
v -1.155777489201234 0.8652538392993695 -0.9666430843004412
v -1.155777489201234 0.8652538392993695 0.8529203685003893
v -0.8746394745717269 0.0 -1.5289191135594555
v -0.8746394745717269 0.0 1.4151963977594035
v -0.24599576280081867 -0.8652538392993695 -1.5289191135594555
v -0.24599576280081867 -0.8652538392993695 1.4151963977594035
v -0.24599576280081867 0.8652538392993695 -1.5289191135594555
v -0.24599576280081867 0.8652538392993695 1.4151963977594035
v 0.7711711296584032 -0.5347562815833499 -1.5289191135594555
v 0.7711711296584032 -0.5347562815833499 1.4151963977594035
v 0.7711711296584032 0.5347562815833499 -1.5289191135594555
v 0.7711711296584032 0.5347562815833499 1.4151963977594035
v -0.5271337774303257 1.730507678598739 0.8529203685003893
v -0.5271337774303257 -1.730507678598739 0.8529203685003893

f 26 22 24 28 30
f 20 22 26
f 18 24 22
f 14 28 24
f 12 30 28
f 16 26 30
f 6 2 16
f 4 8 20
f 7 3 18
f 1 5 14
f 9 10 12
f 8 7 18 22 20
f 5 9 12 28 14
f 10 6 16 30 12
f 29 27 23 21 25
f 25 21 19
f 21 23 17
f 23 27 13
f 27 29 11
f 29 25 15
f 15 2 6
f 19 8 4
f 17 3 7
f 13 5 1
f 11 10 9
f 15 25 19 4 2
f 19 21 17 7 8
f 17 23 13 1 3
f 13 27 11 9 5
f 11 29 15 6 10
f 4 20 31
f 20 26 31
f 26 16 31
f 16 2 31
f 2 4 31
f 3 1 32
f 1 14 32
f 14 24 32
f 24 18 32
f 18 3 32
