v 0.08925197663787904 -1.7312128549880217 -0.02758037756266039
v 0.08925197663787904 1.7312128549880217 -0.02758037756266039
v -0.9283294081032278 -1.400580620565681 -0.02758037756266039
v -0.9283294081032278 1.400580620565681 -0.02758037756266039
v 1.1068333613789858 -1.400580620565681 -0.02758037756266039
v 1.1068333613789858 1.400580620565681 -0.02758037756266039
v -1.5572292901924158 -0.5349741930716702 -0.02758037756266039
v -1.5572292901924158 0.5349741930716702 -0.02758037756266039
v 1.7357332434681738 -0.5349741930716702 -0.02758037756266039
v 1.7357332434681738 0.5349741930716702 -0.02758037756266039
v 1.5619095911628826 0.0 -0.9377328371304533
v 1.5619095911628826 0.0 0.8825720820051325
v 0.5443282064217755 -1.400580620565681 -0.9377328371304533
v 0.5443282064217755 -1.400580620565681 0.8825720820051325
v 0.5443282064217755 1.400580620565681 -0.9377328371304533
v 0.5443282064217755 1.400580620565681 0.8825720820051325
v -1.1021530604085192 -0.8656064274940108 -0.9377328371304533
v -1.1021530604085192 -0.8656064274940108 0.8825720820051325
v -1.1021530604085192 0.8656064274940108 -0.9377328371304533
v -1.1021530604085192 0.8656064274940108 0.8825720820051325
v -0.8209004829299139 0.0 -1.5002379920876638
v -0.8209004829299139 0.0 1.4450772369623432
v -0.1920006008407262 -0.8656064274940108 -1.5002379920876638
v -0.1920006008407262 -0.8656064274940108 1.4450772369623432
v -0.1920006008407262 0.8656064274940108 -1.5002379920876638
v -0.1920006008407262 0.8656064274940108 1.4450772369623432
v 0.8255807839003808 -0.5349741930716702 -1.5002379920876638
v 0.8255807839003808 -0.5349741930716702 1.4450772369623432
v 0.8255807839003808 0.5349741930716702 -1.5002379920876638
v 0.8255807839003808 0.5349741930716702 1.4450772369623432
v -0.47325317831933145 1.7312128549880217 0.8825720820051325
v -0.47325317831933145 -1.7312128549880217 0.8825720820051325
v -1.7310529424977068 0.0 -0.9377328371304533

f 26 22 24 28 30
f 20 22 26
f 18 24 22
f 14 28 24
f 12 30 28
f 16 26 30
f 6 2 16
f 4 8 20
f 7 3 18
f 1 5 14
f 9 10 12
f 8 7 18 22 20
f 5 9 12 28 14
f 10 6 16 30 12
f 29 27 23 21 25
f 25 21 19
f 21 23 17
f 23 27 13
f 27 29 11
f 29 25 15
f 15 2 6
f 19 8 4
f 17 3 7
f 13 5 1
f 11 10 9
f 15 25 19 4 2
f 17 23 13 1 3
f 13 27 11 9 5
f 11 29 15 6 10
f 4 20 31
f 20 26 31
f 26 16 31
f 16 2 31
f 2 4 31
f 3 1 32
f 1 14 32
f 14 24 32
f 24 18 32
f 18 3 32
f 19 21 33
f 21 17 33
f 17 7 33
f 7 8 33
f 8 19 33
