v -0.7559289460184545 1.3093073414159544 1.3093073414159544
v -0.7559289460184545 1.3093073414159544 -1.3093073414159544
v -0.7559289460184545 -1.3093073414159544 1.3093073414159544
v -0.7559289460184545 -1.3093073414159544 -1.3093073414159544
v 1.511857892036909 0.0 1.3093073414159544
v 1.511857892036909 0.0 -1.3093073414159544

f 1 3 5
f 4 2 6
f 2 1 5 6
f 3 1 2 4
f 5 3 4 6
