v -1.6198667341635402 -2.778701432721737e-18 0.4316869200237105
v -1.5405848130559843 -0.5005663494791791 -0.4316869200237106
v -1.5405848130559843 0.5005663494791791 -0.4316869200237106
v -1.3104997165609493 -0.9521337770205008 0.4316869200237105
v -1.3104997165609493 0.4258071698182935 1.2833012596602975
v -1.3104997165609493 0.9521337770205008 0.4316869200237105
v -1.1147776432376908 -0.80993336708177 -1.2833012596602975
v -1.1147776432376908 0.80993336708177 -1.2833012596602975
v -0.952133777020501 -1.310499716560949 -0.4316869200237106
v -0.952133777020501 1.310499716560949 -0.4316869200237106
v -0.8516143396365871 -2.778701432721737e-18 -1.8096278668625048
v -0.8099333670817701 -1.1147776432376906 1.2833012596602975
v -0.8099333670817701 -0.26316330360110374 1.8096278668625048
v -0.5005663494791792 -1.540584813055984 0.4316869200237105
v -0.5005663494791792 0.6889704734193972 1.8096278668625048
v -0.5005663494791792 1.540584813055984 0.4316869200237105
v -0.26316330360110385 -0.80993336708177 -1.8096278668625048
v -0.26316330360110385 0.80993336708177 -1.8096278668625048
v -1.278202659051999e-16 -1.61986673416354 -0.4316869200237106
v -1.278202659051999e-16 -0.851614339636587 1.8096278668625048
v -1.278202659051999e-16 1.3779409468387944 1.2833012596602975
v -1.278202659051999e-16 1.61986673416354 -0.4316869200237106
v 0.42580716981829336 -1.310499716560949 -1.2833012596602975
v 0.42580716981829336 1.310499716560949 -1.2833012596602975
v 0.500566349479179 -1.540584813055984 0.4316869200237105
v 0.500566349479179 0.6889704734193972 1.8096278668625048
v 0.500566349479179 1.540584813055984 0.4316869200237105
v 0.6889704734193971 -0.5005663494791791 -1.8096278668625048
v 0.6889704734193971 0.5005663494791791 -1.8096278668625048
v 0.8099333670817699 -1.1147776432376906 1.2833012596602975
v 0.8099333670817699 -0.26316330360110374 1.8096278668625048
v 0.9521337770205007 -1.310499716560949 -0.4316869200237106
v 0.9521337770205007 1.310499716560949 -0.4316869200237106
v 1.3104997165609489 -0.9521337770205008 0.4316869200237105
v 1.3104997165609489 0.4258071698182935 1.2833012596602975
v 1.3104997165609489 0.9521337770205008 0.4316869200237105
v 1.3779409468387942 -2.778701432721737e-18 -1.2833012596602975
v 1.5405848130559838 -0.5005663494791791 -0.4316869200237106
v 1.5405848130559838 0.5005663494791791 -0.4316869200237106
v 1.6198667341635398 -2.778701432721737e-18 0.4316869200237105

f 29 28 17 11 18
f 18 11 8
f 11 17 7
f 17 28 23
f 28 29 37
f 29 18 24
f 24 22 33
f 8 3 10
f 7 9 2
f 23 32 19
f 37 39 38
f 24 18 8 10 22
f 8 11 7 2 3
f 7 17 23 19 9
f 23 28 37 38 32
f 37 29 24 33 39
f 15 13 20 31 26
f 5 13 15
f 12 20 13
f 30 31 20
f 35 26 31
f 21 15 26
f 27 16 21
f 6 1 5
f 4 14 12
f 25 34 30
f 40 36 35
f 16 6 5 15 21
f 1 4 12 13 5
f 14 25 30 20 12
f 34 40 35 31 30
f 36 27 21 26 35
f 39 40 38
f 38 34 32
f 32 25 19
f 19 14 9
f 9 4 2
f 2 1 3
f 3 6 10
f 10 16 22
f 22 27 33
f 33 36 39
f 36 40 39
f 40 34 38
f 34 25 32
f 25 14 19
f 14 4 9
f 4 1 2
f 1 6 3
f 6 16 10
f 16 27 22
f 27 36 33
