ply
format ascii 1.0
element vertex 8
property float x
property float y
property float z
element face 6
property list uchar int vertex_index
end_header
-0.947213595499958 0.08541019662496846 0.2628655560595668
-0.5 -0.8090169943749475 0.2628655560595668
-0.5 0.8090169943749475 -0.2628655560595668
-0.05278640450004206 -0.08541019662496846 -0.2628655560595668
0.05278640450004206 0.08541019662496846 0.2628655560595668
0.5 -0.8090169943749475 0.2628655560595668
0.5 0.8090169943749475 -0.2628655560595668
0.947213595499958 -0.08541019662496846 -0.2628655560595668
4 3 2 6 7
4 5 4 0 1
4 7 5 1 3
4 2 0 4 6
4 3 1 0 2
4 6 4 5 7
