ply
format ascii 1.0
element vertex 14
property float x
property float y
property float z
element face 24
property list uchar int vertex_index
end_header
-0.947213595499958 -0.5854101966249684 -0.42532540417601994
-0.5 -0.30901699437494745 0.42532540417601994
-0.5 0.30901699437494745 -0.42532540417601994
-0.05278640450004206 0.5854101966249684 0.42532540417601994
0.05278640450004206 -0.5854101966249684 -0.42532540417601994
0.5 -0.30901699437494745 0.42532540417601994
0.5 0.30901699437494745 -0.42532540417601994
0.947213595499958 0.5854101966249684 0.42532540417601994
-0.22360679775 -0.138196601125 -1.41704108089
0.22360679775 0.138196601125 1.62144980362
-0.22360679775 -1.58479549989 0.369622766814
0.22360679775 1.39039125215 -0.306456997692
-1.34360374205 0.421801871025 0.306456997692
1.51748418727 -0.508742093637 -0.369622766814
3 0 2 8
3 2 6 8
3 6 4 8
3 4 0 8
3 5 7 9
3 7 3 9
3 3 1 9
3 1 5 9
3 4 5 10
3 5 1 10
3 1 0 10
3 0 4 10
3 2 3 11
3 3 7 11
3 7 6 11
3 6 2 11
3 0 1 12
3 1 3 12
3 3 2 12
3 2 0 12
3 6 7 13
3 7 5 13
3 5 4 13
3 4 6 13
