ply
format ascii 1.0
element vertex 62
property float x
property float y
property float z
element face 120
property list uchar int vertex_index
end_header
0.9045084971874737 0.0 1.4635254915624212
0.9045084971874737 0.0 -1.4635254915624212
-0.9045084971874737 0.0 1.4635254915624212
-0.9045084971874737 0.0 -1.4635254915624212
1.4635254915624212 0.9045084971874737 0.0
1.4635254915624212 -0.9045084971874737 0.0
-1.4635254915624212 0.9045084971874737 0.0
-1.4635254915624212 -0.9045084971874737 0.0
0.0 1.4635254915624212 0.9045084971874737
0.0 1.4635254915624212 -0.9045084971874737
0.0 -1.4635254915624212 0.9045084971874737
0.0 -1.4635254915624212 -0.9045084971874737
0.0 0.5590169943749475 1.4635254915624212
0.0 0.5590169943749475 -1.4635254915624212
0.0 -0.5590169943749475 1.4635254915624212
0.0 -0.5590169943749475 -1.4635254915624212
1.4635254915624212 0.0 0.5590169943749475
1.4635254915624212 0.0 -0.5590169943749475
-1.4635254915624212 0.0 0.5590169943749475
-1.4635254915624212 0.0 -0.5590169943749475
0.5590169943749475 1.4635254915624212 0.0
0.5590169943749475 -1.4635254915624212 0.0
-0.5590169943749475 1.4635254915624212 0.0
-0.5590169943749475 -1.4635254915624212 0.0
0.9045084971874737 0.9045084971874737 0.9045084971874737
0.9045084971874737 0.9045084971874737 -0.9045084971874737
0.9045084971874737 -0.9045084971874737 0.9045084971874737
0.9045084971874737 -0.9045084971874737 -0.9045084971874737
-0.9045084971874737 0.9045084971874737 0.9045084971874737
-0.9045084971874737 0.9045084971874737 -0.9045084971874737
-0.9045084971874737 -0.9045084971874737 0.9045084971874737
-0.9045084971874737 -0.9045084971874737 -0.9045084971874737
0.0 0.0 2.5088190287203798
0.7752677156858467 -1.2544095143601899 2.0296772300460364
2.0296772300460364 -0.7752677156858466 1.2544095143601899
0.7752677156858467 1.2544095143601899 -2.0296772300460364
2.0296772300460364 0.7752677156858466 -1.2544095143601899
2.0296772300460364 -0.7752677156858465 -1.2544095143601899
-2.0296772300460364 0.7752677156858466 1.2544095143601899
-2.0296772300460364 -0.7752677156858465 1.2544095143601899
-0.7752677156858466 -1.2544095143601899 2.0296772300460364
-2.0296772300460364 0.7752677156858465 -1.2544095143601899
-0.7752677156858466 1.2544095143601899 -2.0296772300460364
0.0 0.0 -2.5088190287203798
1.2544095143601899 2.0296772300460364 0.7752677156858466
2.0296772300460364 0.7752677156858465 1.2544095143601899
2.5088190287203798 0.0 0.0
-2.5088190287203798 0.0 0.0
-2.0296772300460364 -0.7752677156858466 -1.2544095143601899
-1.2544095143601899 -2.0296772300460364 -0.7752677156858467
-1.2544095143601899 2.0296772300460364 0.7752677156858467
-0.7752677156858467 1.2544095143601899 2.0296772300460364
0.7752677156858466 1.2544095143601899 2.0296772300460364
-1.2544095143601899 2.0296772300460364 -0.7752677156858466
0.0 2.5088190287203798 0.0
1.2544095143601899 2.0296772300460364 -0.7752677156858467
-1.2544095143601899 -2.0296772300460364 0.7752677156858466
0.0 -2.5088190287203798 0.0
1.2544095143601899 -2.0296772300460364 0.7752677156858467
-0.7752677156858467 -1.2544095143601899 -2.0296772300460364
0.7752677156858466 -1.2544095143601899 -2.0296772300460364
1.2544095143601899 -2.0296772300460364 -0.7752677156858466
3 0 12 32
3 12 2 32
3 2 14 32
3 14 0 32
3 0 14 33
3 14 10 33
3 10 26 33
3 26 0 33
3 0 26 34
3 26 5 34
3 5 16 34
3 16 0 34
3 1 13 35
3 13 9 35
3 9 25 35
3 25 1 35
3 1 25 36
3 25 4 36
3 4 17 36
3 17 1 36
3 1 17 37
3 17 5 37
3 5 27 37
3 27 1 37
3 2 28 38
3 28 6 38
3 6 18 38
3 18 2 38
3 2 18 39
3 18 7 39
3 7 30 39
3 30 2 39
3 2 30 40
3 30 10 40
3 10 14 40
3 14 2 40
3 3 19 41
3 19 6 41
3 6 29 41
3 29 3 41
3 3 29 42
3 29 9 42
3 9 13 42
3 13 3 42
3 3 13 43
3 13 1 43
3 1 15 43
3 15 3 43
3 4 20 44
3 20 8 44
3 8 24 44
3 24 4 44
3 4 24 45
3 24 0 45
3 0 16 45
3 16 4 45
3 4 16 46
3 16 5 46
3 5 17 46
3 17 4 46
3 7 18 47
3 18 6 47
3 6 19 47
3 19 7 47
3 7 19 48
3 19 3 48
3 3 31 48
3 31 7 48
3 7 31 49
3 31 11 49
3 11 23 49
3 23 7 49
3 8 22 50
3 22 6 50
3 6 28 50
3 28 8 50
3 8 28 51
3 28 2 51
3 2 12 51
3 12 8 51
3 8 12 52
3 12 0 52
3 0 24 52
3 24 8 52
3 9 29 53
3 29 6 53
3 6 22 53
3 22 9 53
3 9 22 54
3 22 8 54
3 8 20 54
3 20 9 54
3 9 20 55
3 20 4 55
3 4 25 55
3 25 9 55
3 10 30 56
3 30 7 56
3 7 23 56
3 23 10 56
3 10 23 57
3 23 11 57
3 11 21 57
3 21 10 57
3 10 21 58
3 21 5 58
3 5 26 58
3 26 10 58
3 11 31 59
3 31 3 59
3 3 15 59
3 15 11 59
3 11 15 60
3 15 1 60
3 1 27 60
3 27 11 60
3 11 27 61
3 27 5 61
3 5 21 61
3 21 11 61
