ply
format ascii 1.0
element vertex 14
property float x
property float y
property float z
element face 24
property list uchar int vertex_index
end_header
0.0 0.0 0.7071067811865476
0.0 0.0 -0.7071067811865476
0.7071067811865476 0.0 0.0
-0.7071067811865476 0.0 0.0
0.0 0.7071067811865476 0.0
0.0 -0.7071067811865476 0.0
0.908176960456583 0.908176960456583 0.908176960456583
-0.908176960456583 0.908176960456583 0.908176960456583
-0.908176960456583 -0.908176960456583 0.908176960456583
0.908176960456583 -0.908176960456583 0.908176960456583
0.908176960456583 -0.908176960456583 -0.908176960456583
-0.908176960456583 -0.908176960456583 -0.908176960456583
-0.908176960456583 0.908176960456583 -0.908176960456583
0.908176960456583 0.908176960456583 -0.908176960456583
3 0 2 6
3 2 4 6
3 4 0 6
3 0 4 7
3 4 3 7
3 3 0 7
3 0 3 8
3 3 5 8
3 5 0 8
3 0 5 9
3 5 2 9
3 2 0 9
3 1 2 10
3 2 5 10
3 5 1 10
3 1 5 11
3 5 3 11
3 3 1 11
3 1 3 12
3 3 4 12
3 4 1 12
3 1 4 13
3 4 2 13
3 2 1 13
