#VRML V2.0 utf8
# Generated by Wagyx

Transform {
  scale 1 1 1
  translation 0 0 0
  children [
    Shape {
        appearance Appearance {
      material Material {
        shininess 1
        specularColor 1 1 1
      }
    }
      geometry IndexedFaceSet {
      solid FALSE
      convex FALSE
      creaseAngle 0
      colorPerVertex FALSE
        color Color {
            color [
            0.0 0.5019607843137255 0.0,
0.0 0.5019607843137255 0.0,
0.0 0.5019607843137255 0.0,
0.0 0.5019607843137255 0.0,
0.0 0.5019607843137255 0.0,
0.0 0.5019607843137255 0.0,
0.0 0.5019607843137255 0.0,
0.0 0.5019607843137255 0.0,
0.0 0.5019607843137255 0.0,
0.0 0.5019607843137255 0.0,
0.0 0.5019607843137255 0.0,
0.0 0.5019607843137255 0.0,
0.0 0.5019607843137255 0.0,
0.0 0.5019607843137255 0.0,
0.0 0.5019607843137255 0.0,
0.0 0.5019607843137255 0.0,
0.0 0.0 1.0,
0.0 0.0 1.0,
0.0 0.0 1.0,
0.0 0.0 1.0,
0.0 0.0 1.0,
0.0 0.5019607843137255 0.0,
0.0 0.5019607843137255 0.0,
0.0 0.5019607843137255 0.0,
0.0 0.5019607843137255 0.0,
0.0 0.0 1.0,
0.0 0.0 1.0,
0.0 0.0 1.0,
0.0 0.0 1.0,
0.0 0.0 1.0,
0.0 0.5019607843137255 0.0,
0.0 0.5019607843137255 0.0,
0.0 0.5019607843137255 0.0,
0.0 0.5019607843137255 0.0
            ]
      }
        coord Coordinate {
          point [
          0.0 -1.028108772121916 1.6535287550200877,
0.0 1.028108772121916 1.6535287550200877,
0.0 -1.8996973035174975 -0.6254199828981718,
0.0 1.8996973035174975 -0.6254199828981718,
-1.028108772121916 0.0 1.6535287550200877,
1.028108772121916 0.0 1.6535287550200877,
-0.9498486517587488 0.3934401937602727 -1.6535287550200877,
0.9498486517587488 -0.3934401937602727 -1.6535287550200877,
1.7550914566866975 0.7269826845647817 0.6254199828981718,
-1.8996973035174975 0.0 -0.6254199828981718,
1.8996973035174975 0.0 -0.6254199828981718,
-1.3432888455190215 -1.3432888455190215 -0.6254199828981718,
-1.3432888455190215 1.3432888455190215 -0.6254199828981718,
1.3432888455190215 -1.3432888455190215 -0.6254199828981718,
1.3432888455190215 1.3432888455190215 -0.6254199828981718,
-0.7269826845647817 -1.7550914566866975 0.6254199828981718,
0.7269826845647817 1.7550914566866975 0.6254199828981718,
0.7269826845647817 -1.7550914566866975 0.6254199828981718,
-0.7269826845647817 1.7550914566866975 0.6254199828981718,
1.7550914566866975 -0.7269826845647817 0.6254199828981718,
-1.7550914566866975 0.7269826845647817 0.6254199828981718,
-1.7550914566866975 -0.7269826845647817 0.6254199828981718,
-0.3934401937602727 -0.9498486517587488 -1.6535287550200877,
0.3934401937602727 0.9498486517587488 -1.6535287550200877
          ]
        }
        coordIndex [
        10,14,8,-1,
14,3,16,-1,
3,12,18,-1,
12,9,20,-1,
9,11,21,-1,
11,2,15,-1,
2,13,17,-1,
13,10,19,-1,
14,16,8,-1,
3,18,16,-1,
12,20,18,-1,
9,21,20,-1,
11,15,21,-1,
2,17,15,-1,
13,19,17,-1,
10,8,19,-1,
7,22,6,23,-1,
12,3,23,6,-1,
11,9,6,22,-1,
13,2,22,7,-1,
14,10,7,23,-1,
23,3,14,-1,
6,9,12,-1,
22,2,11,-1,
7,10,13,-1,
0,5,1,4,-1,
5,0,17,19,-1,
1,5,8,16,-1,
4,1,18,20,-1,
0,4,21,15,-1,
15,17,0,-1,
19,8,5,-1,
16,18,1,-1,
20,21,4,-1
        ]
          colorIndex [
          0, 1, 2, 3, 4, 5, 6, 7, 8, 9, 10, 11, 12, 13, 14, 15, 16, 17, 18, 19, 20, 21, 22, 23, 24, 25, 26, 27, 28, 29, 30, 31, 32, 33
          ]
      }
    }
  ]
}
