#VRML V2.0 utf8
# Generated by Wagyx

Transform {
  scale 1 1 1
  translation 0 0 0
  children [
    Shape {
        appearance Appearance {
      material Material {
        shininess 1
        specularColor 1 1 1
      }
    }
      geometry IndexedFaceSet {
      solid FALSE
      convex FALSE
      creaseAngle 0
      colorPerVertex FALSE
        color Color {
            color [
            0.0 0.5019607843137255 0.0,
0.0 0.5019607843137255 0.0,
0.0 0.5019607843137255 0.0,
0.0 0.5019607843137255 0.0,
0.0 0.5019607843137255 0.0,
0.0 0.5019607843137255 0.0,
0.0 0.5019607843137255 0.0,
0.0 0.5019607843137255 0.0,
0.0 0.5019607843137255 0.0,
0.0 0.5019607843137255 0.0,
0.0 0.5019607843137255 0.0,
0.0 0.5019607843137255 0.0,
0.0 0.5019607843137255 0.0,
0.0 0.5019607843137255 0.0,
0.0 0.5019607843137255 0.0,
0.0 0.5019607843137255 0.0,
1.0 0.6470588235294118 0.0,
1.0 0.6470588235294118 0.0
            ]
      }
        coord Coordinate {
          point [
          1.579540580447884 1.055415273581926 0.6254199828981717,
1.055415273581926 1.579540580447884 -0.6254199828981717,
0.37061255867639903 1.8631951525116695 0.6254199828981717,
-0.3706125586763992 1.8631951525116695 -0.6254199828981717,
-1.055415273581926 1.579540580447884 0.6254199828981717,
-1.579540580447884 1.055415273581926 -0.6254199828981717,
-1.8631951525116695 0.3706125586763991 0.6254199828981717,
-1.8631951525116695 -0.3706125586763991 -0.6254199828981717,
-1.579540580447884 -1.055415273581926 0.6254199828981717,
-1.055415273581926 -1.579540580447884 -0.6254199828981717,
-0.3706125586763992 -1.8631951525116695 0.6254199828981717,
0.37061255867639903 -1.8631951525116695 -0.6254199828981717,
1.055415273581926 -1.579540580447884 0.6254199828981717,
1.579540580447884 -1.055415273581926 -0.6254199828981717,
1.8631951525116695 -0.3706125586763991 0.6254199828981717,
1.8631951525116695 0.3706125586763991 -0.6254199828981717
          ]
        }
        coordIndex [
        7,6,5,-1,
6,4,5,-1,
11,13,12,-1,
8,6,7,-1,
3,5,4,-1,
14,15,0,-1,
15,14,13,-1,
14,12,13,-1,
10,11,12,-1,
4,2,3,-1,
8,9,10,-1,
7,9,8,-1,
9,11,10,-1,
0,1,2,-1,
15,1,0,-1,
1,3,2,-1,
10,12,14,0,2,4,6,8,-1,
7,5,3,1,15,13,11,9,-1
        ]
          colorIndex [
          0, 1, 2, 3, 4, 5, 6, 7, 8, 9, 10, 11, 12, 13, 14, 15, 16, 17
          ]
      }
    }
  ]
}
