#VRML V2.0 utf8
# Generated by Wagyx

Transform {
  scale 1 1 1
  translation 0 0 0
  children [
    Shape {
        appearance Appearance {
      material Material {
        shininess 1
        specularColor 1 1 1
      }
    }
      geometry IndexedFaceSet {
      solid FALSE
      convex FALSE
      creaseAngle 0
      colorPerVertex FALSE
        color Color {
            color [
            0.0 0.0 1.0,
0.0 0.0 1.0,
0.0 0.0 1.0,
0.0 0.0 1.0,
0.0 0.0 1.0,
0.0 0.5019607843137255 0.0,
0.0 0.5019607843137255 0.0,
0.0 0.5019607843137255 0.0,
0.0 0.5019607843137255 0.0,
0.0 0.0 1.0,
0.0 0.0 1.0,
0.0 0.0 1.0,
0.0 0.0 1.0,
0.0 0.0 1.0,
0.0 0.5019607843137255 0.0,
0.0 0.5019607843137255 0.0,
0.0 0.5019607843137255 0.0,
0.0 0.5019607843137255 0.0,
0.0 0.0 1.0,
0.0 0.0 1.0,
0.0 0.0 1.0,
0.0 0.0 1.0,
0.0 0.0 1.0,
0.0 0.0 1.0,
0.0 0.0 1.0,
0.0 0.0 1.0
            ]
      }
        coord Coordinate {
          point [
          -0.7148134886731865 -0.7148134886731865 -1.7257124189220334,
-0.7148134886731865 0.7148134886731865 -1.7257124189220334,
0.0 -1.0108989302488471 1.7257124189220334,
0.0 1.0108989302488471 1.7257124189220334,
0.7148134886731865 -0.7148134886731865 -1.7257124189220334,
0.7148134886731865 0.7148134886731865 -1.7257124189220334,
-1.0108989302488471 0.0 1.7257124189220334,
1.0108989302488471 0.0 1.7257124189220334,
0.7148134886731865 1.7257124189220334 -0.7148134886731865,
0.7148134886731865 1.7257124189220334 0.7148134886731865,
-0.7148134886731865 1.7257124189220334 -0.7148134886731865,
-0.7148134886731865 1.7257124189220334 0.7148134886731865,
-1.7257124189220334 0.7148134886731865 -0.7148134886731865,
-1.7257124189220334 0.7148134886731865 0.7148134886731865,
-1.7257124189220334 -0.7148134886731865 -0.7148134886731865,
-1.7257124189220334 -0.7148134886731865 0.7148134886731865,
-0.7148134886731865 -1.7257124189220334 -0.7148134886731865,
-0.7148134886731865 -1.7257124189220334 0.7148134886731865,
0.7148134886731865 -1.7257124189220334 -0.7148134886731865,
0.7148134886731865 -1.7257124189220334 0.7148134886731865,
1.7257124189220334 -0.7148134886731865 -0.7148134886731865,
1.7257124189220334 -0.7148134886731865 0.7148134886731865,
1.7257124189220334 0.7148134886731865 -0.7148134886731865,
1.7257124189220334 0.7148134886731865 0.7148134886731865
          ]
        }
        coordIndex [
        3,6,2,7,-1,
6,3,11,13,-1,
2,6,15,17,-1,
7,2,19,21,-1,
3,7,23,9,-1,
9,11,3,-1,
13,15,6,-1,
17,19,2,-1,
21,23,7,-1,
4,0,1,5,-1,
10,8,5,1,-1,
14,12,1,0,-1,
18,16,0,4,-1,
22,20,4,5,-1,
5,8,22,-1,
1,12,10,-1,
0,16,14,-1,
4,20,18,-1,
8,10,11,9,-1,
10,12,13,11,-1,
12,14,15,13,-1,
14,16,17,15,-1,
16,18,19,17,-1,
18,20,21,19,-1,
20,22,23,21,-1,
22,8,9,23,-1
        ]
          colorIndex [
          0, 1, 2, 3, 4, 5, 6, 7, 8, 9, 10, 11, 12, 13, 14, 15, 16, 17, 18, 19, 20, 21, 22, 23, 24, 25
          ]
      }
    }
  ]
}
