#VRML V2.0 utf8
# Generated by Wagyx

Transform {
  scale 1 1 1
  translation 0 0 0
  children [
    Shape {
        appearance Appearance {
      material Material {
        shininess 1
        specularColor 1 1 1
      }
    }
      geometry IndexedFaceSet {
      solid FALSE
      convex FALSE
      creaseAngle 0
      colorPerVertex FALSE
        color Color {
            color [
            1.0 0.0 0.0,
0.0 0.5019607843137255 0.0,
0.0 0.5019607843137255 0.0,
0.0 0.5019607843137255 0.0,
0.0 0.5019607843137255 0.0,
0.0 0.5019607843137255 0.0,
0.0 0.5019607843137255 0.0,
0.0 0.5019607843137255 0.0,
0.0 0.5019607843137255 0.0,
0.0 0.5019607843137255 0.0,
0.0 0.5019607843137255 0.0,
1.0 0.0 0.0,
1.0 0.0 0.0,
1.0 0.0 0.0,
1.0 0.0 0.0,
1.0 0.0 0.0,
1.0 0.0 0.0,
0.0 0.5019607843137255 0.0,
0.0 0.5019607843137255 0.0,
0.0 0.5019607843137255 0.0,
0.0 0.5019607843137255 0.0,
0.0 0.5019607843137255 0.0,
0.0 0.5019607843137255 0.0,
0.0 0.5019607843137255 0.0,
0.0 0.5019607843137255 0.0,
0.0 0.5019607843137255 0.0,
0.0 0.5019607843137255 0.0,
1.0 0.0 0.0,
1.0 0.0 0.0,
1.0 0.0 0.0,
1.0 0.0 0.0,
1.0 0.0 0.0,
0.0 0.0 1.0,
0.0 0.0 1.0,
0.0 0.0 1.0,
0.0 0.0 1.0,
0.0 0.0 1.0,
0.0 0.0 1.0,
0.0 0.0 1.0,
0.0 0.0 1.0,
0.0 0.0 1.0,
0.0 0.0 1.0
            ]
      }
        coord Coordinate {
          point [
          -1.0777828249871416e-17 -1.5707557892783408 -0.4853902328998411,
-1.0777828249871416e-17 -1.5707557892783408 0.4853902328998411,
-1.0777828249871416e-17 1.5707557892783408 -0.4853902328998411,
-1.0777828249871416e-17 1.5707557892783408 0.4853902328998411,
-0.41289759398243475 -1.2707681275390115 -1.3111854208647107,
-0.41289759398243475 1.2707681275390115 -1.3111854208647107,
0.41289759398243475 -1.2707681275390115 1.3111854208647107,
0.41289759398243475 1.2707681275390115 1.3111854208647107,
-0.6680823409366335 -0.4853902328998411 -1.8215549147731083,
-0.6680823409366335 0.4853902328998411 -1.8215549147731083,
0.6680823409366335 -0.4853902328998411 1.8215549147731083,
0.6680823409366335 0.4853902328998411 1.8215549147731083,
-0.8257951879648695 0.0 1.8215549147731083,
0.8257951879648695 0.0 -1.8215549147731083,
-1.0809799349190683 -0.7853778946391704 1.3111854208647107,
-1.0809799349190683 0.7853778946391704 1.3111854208647107,
1.0809799349190683 -0.7853778946391704 -1.3111854208647107,
1.0809799349190683 0.7853778946391704 -1.3111854208647107,
-0.25518474695419874 -0.7853778946391704 1.8215549147731083,
-0.25518474695419874 0.7853778946391704 1.8215549147731083,
0.25518474695419874 -0.7853778946391704 -1.8215549147731083,
0.25518474695419874 0.7853778946391704 -1.8215549147731083,
-0.9232670878908322 -1.2707681275390115 -0.4853902328998411,
-0.9232670878908322 -1.2707681275390115 0.4853902328998411,
-0.9232670878908322 1.2707681275390115 -0.4853902328998411,
-0.9232670878908322 1.2707681275390115 0.4853902328998411,
0.9232670878908322 -1.2707681275390115 -0.4853902328998411,
0.9232670878908322 -1.2707681275390115 0.4853902328998411,
0.9232670878908322 1.2707681275390115 -0.4853902328998411,
0.9232670878908322 1.2707681275390115 0.4853902328998411,
-1.4938775289015032 -0.4853902328998411 -0.4853902328998411,
-1.4938775289015032 -0.4853902328998411 0.4853902328998411,
-1.4938775289015032 0.4853902328998411 -0.4853902328998411,
-1.4938775289015032 0.4853902328998411 0.4853902328998411,
1.4938775289015032 -0.4853902328998411 -0.4853902328998411,
1.4938775289015032 -0.4853902328998411 0.4853902328998411,
1.4938775289015032 0.4853902328998411 -0.4853902328998411,
1.4938775289015032 0.4853902328998411 0.4853902328998411,
-1.336164681873267 0.0 -1.3111854208647107,
1.336164681873267 0.0 1.3111854208647107
          ]
        }
        coordIndex [
        19,12,18,10,11,-1,
15,12,19,-1,
14,18,12,-1,
6,10,18,-1,
39,11,10,-1,
7,19,11,-1,
29,3,7,-1,
25,33,15,-1,
31,23,14,-1,
1,27,6,-1,
35,37,39,-1,
3,25,15,19,7,-1,
33,31,14,12,15,-1,
23,1,6,18,14,-1,
27,35,39,10,6,-1,
37,29,7,11,39,-1,
13,20,8,9,21,-1,
21,9,5,-1,
9,8,38,-1,
8,20,4,-1,
20,13,16,-1,
13,21,17,-1,
17,28,36,-1,
5,24,2,-1,
38,30,32,-1,
4,0,22,-1,
16,34,26,-1,
17,21,5,2,28,-1,
5,9,38,32,24,-1,
38,8,4,22,30,-1,
4,20,16,26,0,-1,
16,13,17,36,34,-1,
28,2,3,29,-1,
2,24,25,3,-1,
24,32,33,25,-1,
32,30,31,33,-1,
30,22,23,31,-1,
22,0,1,23,-1,
0,26,27,1,-1,
26,34,35,27,-1,
34,36,37,35,-1,
36,28,29,37,-1
        ]
          colorIndex [
          0, 1, 2, 3, 4, 5, 6, 7, 8, 9, 10, 11, 12, 13, 14, 15, 16, 17, 18, 19, 20, 21, 22, 23, 24, 25, 26, 27, 28, 29, 30, 31, 32, 33, 34, 35, 36, 37, 38, 39, 40, 41
          ]
      }
    }
  ]
}
