#VRML V2.0 utf8
# Generated by Wagyx

Transform {
  scale 1 1 1
  translation 0 0 0
  children [
    Shape {
        appearance Appearance {
      material Material {
        shininess 1
        specularColor 1 1 1
      }
    }
      geometry IndexedFaceSet {
      solid FALSE
      convex FALSE
      creaseAngle 0
      colorPerVertex FALSE
        color Color {
            color [
            1.0 0.0 0.0,
1.0 0.0 0.0,
1.0 0.0 0.0,
1.0 0.0 0.0,
1.0 0.0 0.0,
1.0 0.0 0.0,
1.0 0.0 0.0,
1.0 0.0 0.0,
1.0 0.0 0.0,
1.0 0.0 0.0,
0.0 0.5019607843137255 0.0,
0.0 0.5019607843137255 0.0,
0.0 0.5019607843137255 0.0,
0.0 0.5019607843137255 0.0,
0.0 0.5019607843137255 0.0,
0.0 0.5019607843137255 0.0,
0.0 0.5019607843137255 0.0,
0.0 0.5019607843137255 0.0,
0.0 0.5019607843137255 0.0,
0.0 0.5019607843137255 0.0
            ]
      }
        coord Coordinate {
          point [
          -2.462821930673176e-17 0.0 1.7096363526630645,
-2.462821930673176e-17 0.0 -1.7096363526630645,
0.2176743261049629 -1.5970950245356683 0.5698787842210215,
0.2176743261049629 1.5970950245356683 0.5698787842210215,
0.5698787842210215 -0.9870590084263903 -1.2742877004531385,
0.5698787842210215 0.9870590084263903 -1.2742877004531385,
1.2742877004531385 -0.9870590084263903 0.5698787842210215,
1.2742877004531385 0.9870590084263903 0.5698787842210215,
-1.4919620265581017 -0.610036016109278 0.5698787842210215,
-1.4919620265581017 0.610036016109278 0.5698787842210215,
1.4919620265581017 -0.610036016109278 -0.5698787842210215,
1.4919620265581017 0.610036016109278 -0.5698787842210215,
-1.139757568442043 0.0 -1.2742877004531385,
-0.5698787842210215 -0.9870590084263903 1.2742877004531385,
-0.5698787842210215 0.9870590084263903 1.2742877004531385,
1.139757568442043 0.0 1.2742877004531385,
-1.2742877004531385 -0.9870590084263903 -0.5698787842210215,
-1.2742877004531385 0.9870590084263903 -0.5698787842210215,
1.2141239964133725 0.0 -1.5893089445835324,
-1.2141239964133725 0.0 1.5893089445835324,
-0.21767432610496298 -1.5970950245356683 -0.5698787842210215,
-0.21767432610496298 1.5970950245356683 -0.5698787842210215
          ]
        }
        coordIndex [
        4,10,6,2,20,-1,
10,11,7,15,6,-1,
11,5,21,3,7,-1,
5,1,12,17,21,-1,
1,4,20,16,12,-1,
3,21,17,9,14,-1,
17,12,16,8,9,-1,
16,20,2,13,8,-1,
2,6,15,0,13,-1,
15,7,3,14,0,-1,
19,14,9,-1,
19,9,8,-1,
19,8,13,-1,
19,13,0,-1,
19,0,14,-1,
18,1,5,-1,
18,5,11,-1,
18,11,10,-1,
18,10,4,-1,
18,4,1,-1
        ]
          colorIndex [
          0, 1, 2, 3, 4, 5, 6, 7, 8, 9, 10, 11, 12, 13, 14, 15, 16, 17, 18, 19
          ]
      }
    }
  ]
}
