#VRML V2.0 utf8
# Generated by Wagyx

Transform {
  scale 1 1 1
  translation 0 0 0
  children [
    Shape {
        appearance Appearance {
      material Material {
        shininess 1
        specularColor 1 1 1
      }
    }
      geometry IndexedFaceSet {
      solid FALSE
      convex FALSE
      creaseAngle 0
      colorPerVertex FALSE
        color Color {
            color [
            1.0 0.6470588235294118 0.0,
1.0 0.6470588235294118 0.0,
1.0 0.6470588235294118 0.0,
1.0 0.6470588235294118 0.0,
1.0 0.6470588235294118 0.0,
0.0 0.5019607843137255 0.0,
0.0 0.5019607843137255 0.0,
0.0 0.5019607843137255 0.0,
0.0 0.5019607843137255 0.0,
0.0 0.5019607843137255 0.0,
0.0 0.5019607843137255 0.0,
0.0 0.5019607843137255 0.0,
0.0 0.5019607843137255 0.0,
0.0 0.0 1.0,
0.0 0.0 1.0,
0.0 0.0 1.0,
0.0 0.0 1.0,
0.0 0.0 1.0,
0.0 0.5019607843137255 0.0,
0.0 0.5019607843137255 0.0,
0.0 0.5019607843137255 0.0,
0.0 0.5019607843137255 0.0
            ]
      }
        coord Coordinate {
          point [
          -0.5064227924500407 1.2226127738277432 -1.4995845959999499,
-0.5064227924500407 1.2226127738277432 0.9456409516555367,
-0.5064227924500407 -1.2226127738277432 -1.4995845959999499,
-0.5064227924500407 -1.2226127738277432 0.9456409516555367,
0.0 -0.7161899813777027 1.6618309330332395,
0.0 0.7161899813777027 1.6618309330332395,
0.5064227924500407 1.2226127738277432 -1.4995845959999499,
0.5064227924500407 1.2226127738277432 0.9456409516555367,
0.5064227924500407 -1.2226127738277432 -1.4995845959999499,
0.5064227924500407 -1.2226127738277432 0.9456409516555367,
-0.7161899813777027 0.0 1.6618309330332395,
0.7161899813777027 0.0 1.6618309330332395,
1.2226127738277432 -0.5064227924500407 -1.4995845959999499,
1.2226127738277432 -0.5064227924500407 0.9456409516555367,
1.2226127738277432 0.5064227924500407 -1.4995845959999499,
1.2226127738277432 0.5064227924500407 0.9456409516555367,
1.2226127738277432 1.2226127738277432 -0.7833946146222472,
1.2226127738277432 1.2226127738277432 0.22945097027783412,
1.2226127738277432 -1.2226127738277432 -0.7833946146222472,
1.2226127738277432 -1.2226127738277432 0.22945097027783412,
-1.2226127738277432 -0.5064227924500407 -1.4995845959999499,
-1.2226127738277432 -0.5064227924500407 0.9456409516555367,
-1.2226127738277432 0.5064227924500407 -1.4995845959999499,
-1.2226127738277432 0.5064227924500407 0.9456409516555367,
-1.2226127738277432 1.2226127738277432 -0.7833946146222472,
-1.2226127738277432 1.2226127738277432 0.22945097027783412,
-1.2226127738277432 -1.2226127738277432 -0.7833946146222472,
-1.2226127738277432 -1.2226127738277432 0.22945097027783412
          ]
        }
        coordIndex [
        6,14,12,8,2,20,22,0,-1,
8,18,19,9,3,27,26,2,-1,
0,24,25,1,7,17,16,6,-1,
14,16,17,15,13,19,18,12,-1,
20,26,27,21,23,25,24,22,-1,
8,12,18,-1,
16,14,6,-1,
26,20,2,-1,
0,22,24,-1,
19,13,9,-1,
7,15,17,-1,
3,21,27,-1,
25,23,1,-1,
5,10,4,11,-1,
10,5,1,23,-1,
4,10,21,3,-1,
11,4,9,13,-1,
5,11,15,7,-1,
7,1,5,-1,
23,21,10,-1,
3,9,4,-1,
13,15,11,-1
        ]
          colorIndex [
          0, 1, 2, 3, 4, 5, 6, 7, 8, 9, 10, 11, 12, 13, 14, 15, 16, 17, 18, 19, 20, 21
          ]
      }
    }
  ]
}
