#VRML V2.0 utf8
# Generated by Wagyx

Transform {
  scale 1 1 1
  translation 0 0 0
  children [
    Shape {
        appearance Appearance {
      material Material {
        shininess 1
        specularColor 1 1 1
      }
    }
      geometry IndexedFaceSet {
      solid FALSE
      convex FALSE
      creaseAngle 0
      colorPerVertex FALSE
        color Color {
            color [
            0.0 0.5019607843137255 0.0,
0.0 0.5019607843137255 0.0,
0.0 0.5019607843137255 0.0,
0.0 0.5019607843137255 0.0,
0.0 0.5019607843137255 0.0,
0.0 0.5019607843137255 0.0,
0.0 0.5019607843137255 0.0,
0.0 0.5019607843137255 0.0,
0.0 0.5019607843137255 0.0,
0.0 0.5019607843137255 0.0,
0.0 0.5019607843137255 0.0,
0.0 0.5019607843137255 0.0,
0.0 0.5019607843137255 0.0,
0.0 0.5019607843137255 0.0,
0.0 0.5019607843137255 0.0,
0.0 0.0 1.0,
1.0 0.0 0.0,
0.0 0.0 1.0,
0.0 0.0 1.0,
1.0 0.0 0.0,
0.0 0.0 1.0,
1.0 0.7529411764705882 0.796078431372549,
1.0 0.0 0.0,
0.0 0.0 1.0,
0.0 0.0 1.0,
0.0 0.0 1.0,
0.0 0.0 1.0,
1.0 0.0 0.0,
0.0 0.0 1.0,
0.0 0.0 1.0,
0.0 0.0 1.0,
0.0 0.0 1.0,
0.0 0.0 1.0,
1.0 0.0 0.0,
0.0 0.0 1.0,
1.0 0.0 0.0,
1.0 0.0 0.0,
0.0 0.0 1.0,
0.0 0.0 1.0,
0.0 0.0 1.0,
1.0 0.0 0.0,
1.0 0.0 0.0,
0.0 0.0 1.0,
0.0 0.0 1.0,
0.0 0.0 1.0,
0.0 0.0 1.0,
1.0 0.0 0.0,
0.0 0.0 1.0,
0.0 0.0 1.0,
1.0 0.0 0.0,
0.0 0.0 1.0,
0.0 0.0 1.0
            ]
      }
        coord Coordinate {
          point [
          0.4226171057130293 0.5575649400507782 1.873637136583526,
0.4226171057130293 0.5575649400507782 -1.7068324399256878,
0.4226171057130293 -0.2876692713752804 1.873637136583526,
0.4226171057130293 -0.2876692713752804 -1.7068324399256878,
-0.4226171057130293 0.5575649400507782 1.873637136583526,
-0.4226171057130293 0.5575649400507782 -1.7068324399256878,
-0.4226171057130293 -0.2876692713752804 1.873637136583526,
-0.4226171057130293 -0.2876692713752804 -1.7068324399256878,
1.7902347882546068 0.5575649400507782 0.5060194540419483,
1.7902347882546068 0.5575649400507782 -0.33921475738411033,
1.6012346728888973 -0.5934778819146499 0.7672111895997077,
1.8624264084466566 -0.1708607762016206 0.08340234832891895,
-1.7902347882546068 0.5575649400507782 0.5060194540419483,
-1.7902347882546068 0.5575649400507782 -0.33921475738411033,
-1.8624264084466566 -0.1708607762016206 0.08340234832891895,
-1.6012346728888973 -0.5934778819146499 -0.6004064929418699,
0.4226171057130293 1.9251826225923556 -0.33921475738411033,
0.4226171057130293 -1.655286953916858 0.5060194540419483,
0.4226171057130293 -1.655286953916858 -0.33921475738411033,
-0.4226171057130293 1.9251826225923556 -0.33921475738411033,
-0.4226171057130293 -1.655286953916858 0.5060194540419483,
-0.4226171057130293 -1.655286953916858 -0.33921475738411033,
-6.8247162380079836e-18 1.2413737813215668 -1.4456407043679285,
-6.8247162380079836e-18 -0.9714781126460693 1.6124454010257663,
-6.8247162380079836e-18 -0.9714781126460693 -1.4456407043679285,
1.5290430526968475 0.13494783433774885 1.189828295312737,
1.5290430526968475 0.13494783433774885 -1.0230235986548992,
-1.5290430526968475 0.13494783433774885 1.189828295312737,
-1.5290430526968475 0.13494783433774885 -1.0230235986548992,
1.106425946983818 1.663990887034596 0.08340234832891895,
1.1786175671758679 -1.2772867231854386 -0.33921475738411033,
-1.106425946983818 1.663990887034596 0.08340234832891895,
-1.1786175671758679 -1.2772867231854386 0.5060194540419483,
1.106425946983818 0.8187566756085377 1.4510200308704966,
1.106425946983818 0.8187566756085377 -1.2842153342126585,
1.106425946983818 -0.54886100693304 1.4510200308704966,
1.106425946983818 -0.54886100693304 -1.2842153342126585,
-1.106425946983818 0.8187566756085377 1.4510200308704966,
-1.106425946983818 0.8187566756085377 -1.2842153342126585,
-1.106425946983818 -0.54886100693304 1.4510200308704966,
-1.106425946983818 -0.54886100693304 -1.2842153342126585,
1.3676176825415776 1.2413737813215668 0.7672111895997077,
1.3676176825415776 1.2413737813215668 -0.6004064929418699,
1.1786175671758679 -1.2772867231854386 0.5060194540419483,
1.6012346728888973 -0.5934778819146499 -0.6004064929418699,
-1.3676176825415776 1.2413737813215668 0.7672111895997077,
-1.3676176825415776 1.2413737813215668 -0.6004064929418699,
-1.6012346728888973 -0.5934778819146499 0.7672111895997077,
-1.1786175671758679 -1.2772867231854386 -0.33921475738411033,
0.6838088412707888 1.5025655168793264 -1.0230235986548992,
0.6838088412707888 -1.2326698482038287 1.189828295312737,
0.6838088412707888 -1.2326698482038287 -1.0230235986548992,
-0.6838088412707888 1.5025655168793264 -1.0230235986548992,
-0.6838088412707888 -1.2326698482038287 1.189828295312737,
-0.6838088412707888 -1.2326698482038287 -1.0230235986548992
          ]
        }
        coordIndex [
        3,24,7,-1,
54,21,48,-1,
14,12,13,-1,
42,34,49,-1,
50,17,43,-1,
52,38,46,-1,
35,10,25,-1,
53,32,20,-1,
51,30,18,-1,
44,36,26,-1,
11,9,8,-1,
23,2,6,-1,
47,39,27,-1,
40,15,28,-1,
1,5,22,-1,
49,16,29,42,-1,
25,33,0,2,35,-1,
40,7,24,54,-1,
43,17,18,30,-1,
36,3,1,34,26,-1,
45,12,27,37,-1,
31,45,37,4,0,33,41,29,16,19,-1,
46,13,12,45,31,-1,
46,31,19,52,-1,
33,25,8,41,-1,
43,10,35,50,-1,
10,11,8,25,-1,
39,6,4,37,27,-1,
2,0,4,6,-1,
18,17,20,21,-1,
21,20,32,48,-1,
38,28,13,46,-1,
24,3,36,51,-1,
24,51,18,21,54,-1,
36,44,30,51,-1,
44,11,10,43,30,-1,
52,19,16,49,22,-1,
34,1,22,49,-1,
26,9,11,44,-1,
42,9,26,34,-1,
29,41,8,9,42,-1,
53,20,17,50,23,-1,
35,2,23,50,-1,
53,23,6,39,-1,
27,12,14,47,-1,
39,47,32,53,-1,
32,47,14,15,48,-1,
48,15,40,54,-1,
15,14,13,28,-1,
28,38,5,7,40,-1,
5,1,3,7,-1,
22,5,38,52,-1
        ]
          colorIndex [
          0, 1, 2, 3, 4, 5, 6, 7, 8, 9, 10, 11, 12, 13, 14, 15, 16, 17, 18, 19, 20, 21, 22, 23, 24, 25, 26, 27, 28, 29, 30, 31, 32, 33, 34, 35, 36, 37, 38, 39, 40, 41, 42, 43, 44, 45, 46, 47, 48, 49, 50, 51
          ]
      }
    }
  ]
}
