#VRML V2.0 utf8
# Generated by Wagyx

Transform {
  scale 1 1 1
  translation 0 0 0
  children [
    Shape {
        appearance Appearance {
      material Material {
        shininess 1
        specularColor 1 1 1
      }
    }
      geometry IndexedFaceSet {
      solid FALSE
      convex FALSE
      creaseAngle 0
      colorPerVertex FALSE
        color Color {
            color [
            0.0 0.5019607843137255 0.0,
0.0 0.5019607843137255 0.0,
0.0 0.5019607843137255 0.0,
0.0 0.5019607843137255 0.0,
0.0 0.5019607843137255 0.0,
0.0 0.5019607843137255 0.0,
0.0 0.5019607843137255 0.0,
0.0 0.5019607843137255 0.0,
0.0 0.5019607843137255 0.0,
0.0 0.5019607843137255 0.0,
0.0 0.5019607843137255 0.0,
0.0 0.5019607843137255 0.0,
0.0 0.5019607843137255 0.0,
0.0 0.5019607843137255 0.0,
0.0 0.5019607843137255 0.0,
0.0 0.5019607843137255 0.0,
0.0 0.5019607843137255 0.0,
0.0 0.5019607843137255 0.0,
0.0 0.0 1.0,
0.0 0.0 1.0,
0.0 0.0 1.0
            ]
      }
        coord Coordinate {
          point [
          0.8887314528464526 0.8887314528464526 1.517860244336842,
-0.8887314528464526 0.8887314528464526 1.517860244336842,
0.8887314528464526 -0.8887314528464526 1.517860244336842,
-0.8887314528464526 -0.8887314528464526 1.517860244336842,
1.2741650690689361 0.8887314528464526 -0.21730986507604344,
-1.2741650690689361 0.8887314528464526 -0.21730986507604344,
1.2741650690689361 -0.8887314528464526 -0.21730986507604344,
-1.2741650690689361 -0.8887314528464526 -0.21730986507604344,
0.0 1.9575128629254506 0.4100529130263618,
0.0 -1.9575128629254506 0.4100529130263618,
0.8887314528464526 0.0 -1.707602357616135,
-0.8887314528464526 0.0 -1.707602357616135,
0.0 1.485353001792274 -1.3035513139318253,
0.0 -1.485353001792274 -1.3035513139318253
          ]
        }
        coordIndex [
        4,8,0,-1,
4,6,10,-1,
12,4,10,-1,
4,12,8,-1,
12,10,11,-1,
12,5,8,-1,
5,12,11,-1,
9,2,3,-1,
2,9,6,-1,
1,0,8,-1,
5,1,8,-1,
10,13,11,-1,
9,13,6,-1,
13,10,6,-1,
7,9,3,-1,
9,7,13,-1,
7,11,13,-1,
7,5,11,-1,
6,4,0,2,-1,
2,0,1,3,-1,
3,1,5,7,-1
        ]
          colorIndex [
          0, 1, 2, 3, 4, 5, 6, 7, 8, 9, 10, 11, 12, 13, 14, 15, 16, 17, 18, 19, 20
          ]
      }
    }
  ]
}
