#VRML V2.0 utf8
# Generated by Wagyx

Transform {
  scale 1 1 1
  translation 0 0 0
  children [
    Shape {
        appearance Appearance {
      material Material {
        shininess 1
        specularColor 1 1 1
      }
    }
      geometry IndexedFaceSet {
      solid FALSE
      convex FALSE
      creaseAngle 0
      colorPerVertex FALSE
        color Color {
            color [
            1.0 0.0 0.0,
1.0 0.0 0.0,
1.0 0.0 0.0,
1.0 0.0 0.0,
1.0 0.0 0.0,
1.0 0.0 0.0,
1.0 0.0 0.0,
1.0 0.0 0.0,
1.0 0.0 0.0,
1.0 0.0 0.0,
1.0 0.0 0.0,
1.0 0.0 0.0,
0.0 0.5019607843137255 0.0,
0.0 0.5019607843137255 0.0,
0.0 0.5019607843137255 0.0,
0.0 0.5019607843137255 0.0,
0.0 0.5019607843137255 0.0,
0.0 0.5019607843137255 0.0,
0.0 0.5019607843137255 0.0,
0.0 0.5019607843137255 0.0,
0.0 0.5019607843137255 0.0,
0.0 0.5019607843137255 0.0,
0.0 0.5019607843137255 0.0,
0.0 0.5019607843137255 0.0,
0.0 0.5019607843137255 0.0,
0.0 0.5019607843137255 0.0,
0.0 0.5019607843137255 0.0,
0.0 0.5019607843137255 0.0,
0.0 0.5019607843137255 0.0,
0.0 0.5019607843137255 0.0,
0.0 0.5019607843137255 0.0,
0.0 0.5019607843137255 0.0,
0.0 0.5019607843137255 0.0,
0.0 0.5019607843137255 0.0,
0.0 0.5019607843137255 0.0,
0.0 0.5019607843137255 0.0,
0.0 0.5019607843137255 0.0,
0.0 0.5019607843137255 0.0,
0.0 0.5019607843137255 0.0,
0.0 0.5019607843137255 0.0,
0.0 0.5019607843137255 0.0,
0.0 0.5019607843137255 0.0,
0.0 0.5019607843137255 0.0,
0.0 0.5019607843137255 0.0,
0.0 0.5019607843137255 0.0,
0.0 0.5019607843137255 0.0,
0.0 0.5019607843137255 0.0,
0.0 0.5019607843137255 0.0,
0.0 0.5019607843137255 0.0,
0.0 0.5019607843137255 0.0,
0.0 0.5019607843137255 0.0,
0.0 0.5019607843137255 0.0,
0.0 0.5019607843137255 0.0,
0.0 0.5019607843137255 0.0,
0.0 0.5019607843137255 0.0,
0.0 0.5019607843137255 0.0,
0.0 0.5019607843137255 0.0,
0.0 0.5019607843137255 0.0,
0.0 0.5019607843137255 0.0,
0.0 0.5019607843137255 0.0,
0.0 0.5019607843137255 0.0,
0.0 0.5019607843137255 0.0,
0.0 0.5019607843137255 0.0,
0.0 0.5019607843137255 0.0,
0.0 0.5019607843137255 0.0,
0.0 0.5019607843137255 0.0,
0.0 0.5019607843137255 0.0,
0.0 0.5019607843137255 0.0,
0.0 0.5019607843137255 0.0,
0.0 0.5019607843137255 0.0,
0.0 0.5019607843137255 0.0,
0.0 0.5019607843137255 0.0,
0.0 0.5019607843137255 0.0,
0.0 0.5019607843137255 0.0,
0.0 0.5019607843137255 0.0,
0.0 0.5019607843137255 0.0,
0.0 0.5019607843137255 0.0,
0.0 0.5019607843137255 0.0,
0.0 0.5019607843137255 0.0,
0.0 0.5019607843137255 0.0,
0.0 0.5019607843137255 0.0,
0.0 0.5019607843137255 0.0,
0.0 0.5019607843137255 0.0,
0.0 0.5019607843137255 0.0,
0.0 0.5019607843137255 0.0,
0.0 0.5019607843137255 0.0,
0.0 0.5019607843137255 0.0,
0.0 0.5019607843137255 0.0,
0.0 0.5019607843137255 0.0,
0.0 0.5019607843137255 0.0,
0.0 0.5019607843137255 0.0,
0.0 0.5019607843137255 0.0
            ]
      }
        coord Coordinate {
          point [
          0.347727210262747 -0.306999988542358 1.9454657011311913,
0.347727210262747 0.306999988542358 -1.9454657011311913,
-0.347727210262747 0.306999988542358 1.9454657011311913,
-0.347727210262747 -0.306999988542358 -1.9454657011311913,
1.9454657011311913 -0.347727210262747 0.306999988542358,
1.9454657011311913 0.347727210262747 -0.306999988542358,
-1.9454657011311913 0.347727210262747 0.306999988542358,
-1.9454657011311913 -0.347727210262747 -0.306999988542358,
0.306999988542358 -1.9454657011311913 0.347727210262747,
0.306999988542358 1.9454657011311913 -0.347727210262747,
-0.306999988542358 1.9454657011311913 0.347727210262747,
-0.306999988542358 -1.9454657011311913 -0.347727210262747,
0.5266773607508024 0.5965474143239401 1.8348684258376649,
0.5266773607508024 -0.5965474143239401 -1.8348684258376649,
-0.5266773607508024 -0.5965474143239401 1.8348684258376649,
-0.5266773607508024 0.5965474143239401 -1.8348684258376649,
1.8348684258376649 0.5266773607508024 0.5965474143239401,
1.8348684258376649 -0.5266773607508024 -0.5965474143239401,
-1.8348684258376649 -0.5266773607508024 0.5965474143239401,
-1.8348684258376649 0.5266773607508024 -0.5965474143239401,
0.5965474143239401 1.8348684258376649 0.5266773607508024,
0.5965474143239401 -1.8348684258376649 -0.5266773607508024,
-0.5965474143239401 -1.8348684258376649 0.5266773607508024,
-0.5965474143239401 1.8348684258376649 -0.5266773607508024,
0.17895015048805538 -1.1591818593422458 1.619961191082106,
0.17895015048805538 1.1591818593422458 -1.619961191082106,
-0.17895015048805538 1.1591818593422458 1.619961191082106,
-0.17895015048805538 -1.1591818593422458 -1.619961191082106,
1.619961191082106 -0.17895015048805538 1.1591818593422458,
1.619961191082106 0.17895015048805538 -1.1591818593422458,
-1.619961191082106 0.17895015048805538 1.1591818593422458,
-1.619961191082106 -0.17895015048805538 -1.1591818593422458,
1.1591818593422458 -1.619961191082106 0.17895015048805538,
1.1591818593422458 1.619961191082106 -0.17895015048805538,
-1.1591818593422458 1.619961191082106 0.17895015048805538,
-1.1591818593422458 -1.619961191082106 -0.17895015048805538,
1.0234137767581657 -0.7862838417889456 1.5278684372953069,
1.0234137767581657 0.7862838417889456 -1.5278684372953069,
-1.0234137767581657 0.7862838417889456 1.5278684372953069,
-1.0234137767581657 -0.7862838417889456 -1.5278684372953069,
1.5278684372953069 -1.0234137767581657 0.7862838417889456,
1.5278684372953069 1.0234137767581657 -0.7862838417889456,
-1.5278684372953069 1.0234137767581657 0.7862838417889456,
-1.5278684372953069 -1.0234137767581657 -0.7862838417889456,
0.7862838417889456 -1.5278684372953069 1.0234137767581657,
0.7862838417889456 1.5278684372953069 -1.0234137767581657,
-0.7862838417889456 1.5278684372953069 1.0234137767581657,
-0.7862838417889456 -1.5278684372953069 -1.0234137767581657,
1.312961202539748 0.6756865664954189 1.3489182868072516,
1.312961202539748 -0.6756865664954189 -1.3489182868072516,
-1.312961202539748 -0.6756865664954189 1.3489182868072516,
-1.312961202539748 0.6756865664954189 -1.3489182868072516,
1.3489182868072516 1.312961202539748 0.6756865664954189,
1.3489182868072516 -1.312961202539748 -0.6756865664954189,
-1.3489182868072516 -1.312961202539748 0.6756865664954189,
-1.3489182868072516 1.312961202539748 -0.6756865664954189,
0.6756865664954189 1.3489182868072516 1.312961202539748,
0.6756865664954189 -1.3489182868072516 -1.312961202539748,
-0.6756865664954189 -1.3489182868072516 1.312961202539748,
-0.6756865664954189 1.3489182868072516 -1.312961202539748
          ]
        }
        coordIndex [
        0,36,28,48,12,-1,
1,37,29,49,13,-1,
2,38,30,50,14,-1,
3,39,31,51,15,-1,
4,40,32,53,17,-1,
5,41,33,52,16,-1,
6,42,34,55,19,-1,
7,43,35,54,18,-1,
8,44,24,58,22,-1,
9,45,25,59,23,-1,
10,46,26,56,20,-1,
11,47,27,57,21,-1,
0,2,14,-1,
1,3,15,-1,
2,0,12,-1,
3,1,13,-1,
4,5,16,-1,
5,4,17,-1,
6,7,18,-1,
7,6,19,-1,
8,11,21,-1,
9,10,20,-1,
10,9,23,-1,
11,8,22,-1,
12,48,56,-1,
13,49,57,-1,
14,50,58,-1,
15,51,59,-1,
16,52,48,-1,
17,53,49,-1,
18,54,50,-1,
19,55,51,-1,
20,56,52,-1,
21,57,53,-1,
22,58,54,-1,
23,59,55,-1,
24,44,36,-1,
25,45,37,-1,
26,46,38,-1,
27,47,39,-1,
28,36,40,-1,
29,37,41,-1,
30,38,42,-1,
31,39,43,-1,
32,40,44,-1,
33,41,45,-1,
34,42,46,-1,
35,43,47,-1,
36,0,24,-1,
37,1,25,-1,
38,2,26,-1,
39,3,27,-1,
40,4,28,-1,
41,5,29,-1,
42,6,30,-1,
43,7,31,-1,
44,8,32,-1,
45,9,33,-1,
46,10,34,-1,
47,11,35,-1,
48,28,16,-1,
49,29,17,-1,
50,30,18,-1,
51,31,19,-1,
52,33,20,-1,
53,32,21,-1,
54,35,22,-1,
55,34,23,-1,
56,26,12,-1,
57,27,13,-1,
58,24,14,-1,
59,25,15,-1,
24,0,14,-1,
25,1,15,-1,
26,2,12,-1,
27,3,13,-1,
28,4,16,-1,
29,5,17,-1,
30,6,18,-1,
31,7,19,-1,
32,8,21,-1,
33,9,20,-1,
34,10,23,-1,
35,11,22,-1,
36,44,40,-1,
37,45,41,-1,
38,46,42,-1,
39,47,43,-1,
48,52,56,-1,
49,53,57,-1,
50,54,58,-1,
51,55,59,-1
        ]
          colorIndex [
          0, 1, 2, 3, 4, 5, 6, 7, 8, 9, 10, 11, 12, 13, 14, 15, 16, 17, 18, 19, 20, 21, 22, 23, 24, 25, 26, 27, 28, 29, 30, 31, 32, 33, 34, 35, 36, 37, 38, 39, 40, 41, 42, 43, 44, 45, 46, 47, 48, 49, 50, 51, 52, 53, 54, 55, 56, 57, 58, 59, 60, 61, 62, 63, 64, 65, 66, 67, 68, 69, 70, 71, 72, 73, 74, 75, 76, 77, 78, 79, 80, 81, 82, 83, 84, 85, 86, 87, 88, 89, 90, 91
          ]
      }
    }
  ]
}
