#VRML V2.0 utf8
# Generated by Wagyx

Transform {
  scale 1 1 1
  translation 0 0 0
  children [
    Shape {
        appearance Appearance {
      material Material {
        shininess 1
        specularColor 1 1 1
      }
    }
      geometry IndexedFaceSet {
      solid FALSE
      convex FALSE
      creaseAngle 0
      colorPerVertex FALSE
        color Color {
            color [
            1.0 0.0 0.0,
0.0 0.0 1.0,
0.0 0.0 1.0,
0.0 0.0 1.0,
1.0 0.0 0.0,
0.0 0.0 1.0,
0.0 0.5019607843137255 0.0,
0.0 0.5019607843137255 0.0,
0.0 0.0 1.0,
0.0 0.0 1.0
            ]
      }
        coord Coordinate {
          point [
          0.7518346611374495 1.1654438275777483 0.7202838974218205,
0.7518346611374495 1.1654438275777483 -0.7202838974218205,
-0.6182267273135355 0.7202838974218205 0.7202838974218205,
-0.6182267273135355 0.7202838974218205 -0.7202838974218205,
-0.6182267273135355 -0.7202838974218205 0.7202838974218205,
-0.6182267273135355 -0.7202838974218205 -0.7202838974218205,
0.7518346611374495 -1.1654438275777483 0.7202838974218205,
0.7518346611374495 -1.1654438275777483 -0.7202838974218205,
1.5985791658740303 0.0 0.7202838974218205,
1.5985791658740303 0.0 -0.7202838974218205,
-1.8657950335218583 0.0 -0.7202838974218205,
-1.8657950335218583 0.0 0.7202838974218205
          ]
        }
        coordIndex [
        6,8,0,2,4,-1,
1,0,8,9,-1,
8,6,7,9,-1,
6,4,5,7,-1,
5,3,1,9,7,-1,
2,0,1,3,-1,
5,10,3,-1,
11,4,2,-1,
10,5,4,11,-1,
3,10,11,2,-1
        ]
          colorIndex [
          0, 1, 2, 3, 4, 5, 6, 7, 8, 9
          ]
      }
    }
  ]
}
