#VRML V2.0 utf8
# Generated by Wagyx

Transform {
  scale 1 1 1
  translation 0 0 0
  children [
    Shape {
        appearance Appearance {
      material Material {
        shininess 1
        specularColor 1 1 1
      }
    }
      geometry IndexedFaceSet {
      solid FALSE
      convex FALSE
      creaseAngle 0
      colorPerVertex FALSE
        color Color {
            color [
            1.0 0.0 0.0,
0.0 0.5019607843137255 0.0,
0.0 0.5019607843137255 0.0,
0.0 0.5019607843137255 0.0,
0.0 0.5019607843137255 0.0,
0.0 0.5019607843137255 0.0,
0.0 0.5019607843137255 0.0,
0.0 0.5019607843137255 0.0,
0.0 0.5019607843137255 0.0,
0.0 0.5019607843137255 0.0,
0.0 0.5019607843137255 0.0,
1.0 0.0 0.0,
1.0 0.0 0.0,
1.0 0.0 0.0,
1.0 0.7529411764705882 0.796078431372549,
0.0 0.5019607843137255 0.0,
0.0 0.5019607843137255 0.0,
0.0 0.5019607843137255 0.0,
0.0 0.5019607843137255 0.0,
0.0 0.5019607843137255 0.0,
0.0 0.5019607843137255 0.0,
0.0 0.5019607843137255 0.0,
0.0 0.5019607843137255 0.0,
0.0 0.5019607843137255 0.0,
0.0 0.5019607843137255 0.0
            ]
      }
        coord Coordinate {
          point [
          0.054221376336488644 -1.835638610451745 -0.6619456198166489,
0.054221376336488644 1.835638610451745 -0.6619456198166489,
-1.024739927425695 -1.4850628313862757 -0.6619456198166489,
-1.024739927425695 1.4850628313862757 -0.6619456198166489,
1.1331826800986724 -1.4850628313862757 -0.6619456198166489,
1.1331826800986724 1.4850628313862757 -0.6619456198166489,
-1.6915746856966245 -0.5672435261604032 -0.6619456198166489,
-1.6915746856966245 0.5672435261604032 -0.6619456198166489,
1.800017438369602 -0.5672435261604032 -0.6619456198166489,
1.800017438369602 0.5672435261604032 -0.6619456198166489,
1.615708844159481 0.0 0.30310670830496794,
0.5367475403972971 -1.4850628313862757 0.30310670830496794,
0.5367475403972971 1.4850628313862757 0.30310670830496794,
-1.209048521635816 -0.9178193052258725 0.30310670830496794,
-1.209048521635816 0.9178193052258725 0.30310670830496794,
-0.9108309517851283 0.0 0.8995418480063433,
-0.24399619351419896 -0.9178193052258725 0.8995418480063433,
-0.24399619351419896 0.9178193052258725 0.8995418480063433,
0.8349651102479847 -0.5672435261604032 0.8995418480063433,
0.8349651102479847 0.5672435261604032 0.8995418480063433,
-0.5422137633648866 1.835638610451745 0.30310670830496794,
-0.5422137633648866 -1.835638610451745 0.30310670830496794
          ]
        }
        coordIndex [
        17,15,16,18,19,-1,
14,15,17,-1,
13,16,15,-1,
11,18,16,-1,
10,19,18,-1,
12,17,19,-1,
5,1,12,-1,
3,7,14,-1,
6,2,13,-1,
0,4,11,-1,
8,9,10,-1,
7,6,13,15,14,-1,
4,8,10,18,11,-1,
9,5,12,19,10,-1,
9,8,4,0,2,6,7,3,1,5,-1,
3,14,20,-1,
14,17,20,-1,
17,12,20,-1,
12,1,20,-1,
1,3,20,-1,
2,0,21,-1,
0,11,21,-1,
11,16,21,-1,
16,13,21,-1,
13,2,21,-1
        ]
          colorIndex [
          0, 1, 2, 3, 4, 5, 6, 7, 8, 9, 10, 11, 12, 13, 14, 15, 16, 17, 18, 19, 20, 21, 22, 23, 24
          ]
      }
    }
  ]
}
