#VRML V2.0 utf8
# Generated by Wagyx

Transform {
  scale 1 1 1
  translation 0 0 0
  children [
    Shape {
        appearance Appearance {
      material Material {
        shininess 1
        specularColor 1 1 1
      }
    }
      geometry IndexedFaceSet {
      solid FALSE
      convex FALSE
      creaseAngle 0
      colorPerVertex FALSE
        color Color {
            color [
            1.0 0.0 0.0,
0.0 0.5019607843137255 0.0,
0.0 0.5019607843137255 0.0,
0.0 0.5019607843137255 0.0,
0.0 0.5019607843137255 0.0,
0.0 0.5019607843137255 0.0,
0.0 0.5019607843137255 0.0,
0.0 0.5019607843137255 0.0,
0.0 0.5019607843137255 0.0,
0.0 0.5019607843137255 0.0,
0.0 0.5019607843137255 0.0,
1.0 0.0 0.0,
1.0 0.0 0.0,
1.0 0.0 0.0,
1.0 0.0 0.0,
1.0 0.0 0.0,
0.0 0.5019607843137255 0.0,
0.0 0.5019607843137255 0.0,
0.0 0.5019607843137255 0.0,
0.0 0.5019607843137255 0.0,
0.0 0.5019607843137255 0.0,
0.0 0.5019607843137255 0.0,
0.0 0.5019607843137255 0.0,
0.0 0.5019607843137255 0.0,
0.0 0.5019607843137255 0.0,
0.0 0.5019607843137255 0.0,
1.0 0.0 0.0,
1.0 0.0 0.0,
1.0 0.0 0.0,
1.0 0.0 0.0,
1.0 0.0 0.0,
0.0 0.5019607843137255 0.0,
0.0 0.5019607843137255 0.0,
0.0 0.5019607843137255 0.0,
0.0 0.5019607843137255 0.0,
0.0 0.5019607843137255 0.0
            ]
      }
        coord Coordinate {
          point [
          0.01842621348333477 -1.8147217244843514 -0.02981423969999719,
0.01842621348333477 1.7013016167040798 -0.02981423969999719,
-1.0149071198499984 -1.4789713717103483 -0.02981423969999719,
-1.0149071198499984 1.3655512639300764 -0.02981423969999719,
1.0517595468166678 -1.4789713717103483 -0.02981423969999719,
1.0517595468166678 1.3655512639300764 -0.02981423969999719,
-1.653542241558223 -0.5999655364132406 -0.02981423969999719,
-1.653542241558223 0.4865454286329686 -0.02981423969999719,
1.6903946685248925 -0.5999655364132406 -0.02981423969999719,
1.6903946685248925 0.4865454286329686 -0.02981423969999719,
1.5138802621666243 -0.05671005389013598 -0.9540556703999101,
1.5138802621666243 -0.05671005389013598 0.8944271909999156,
0.48054692883329114 -1.4789713717103483 -0.9540556703999101,
0.48054692883329114 -1.4789713717103483 0.8944271909999156,
0.48054692883329114 1.3655512639300764 -0.9540556703999101,
0.48054692883329114 1.3655512639300764 0.8944271909999156,
-1.1914215262082666 -0.9357158891872437 -0.9540556703999101,
-1.1914215262082666 -0.9357158891872437 0.8944271909999156,
-1.1914215262082666 0.8222957814069719 -0.9540556703999101,
-1.1914215262082666 0.8222957814069719 0.8944271909999156,
-0.9058152172165781 -0.05671005389013598 -1.5252682883832867,
-0.9058152172165781 -0.05671005389013598 1.4656398089832925,
-0.2671800955083536 -0.9357158891872437 -1.5252682883832867,
-0.2671800955083536 -0.9357158891872437 1.4656398089832925,
-0.2671800955083536 0.8222957814069719 -1.5252682883832867,
-0.2671800955083536 0.8222957814069719 1.4656398089832925,
0.7661532378249796 -0.5999655364132406 -1.5252682883832867,
0.7661532378249796 -0.5999655364132406 1.4656398089832925,
0.7661532378249796 0.4865454286329686 -1.5252682883832867,
0.7661532378249796 0.4865454286329686 1.4656398089832925,
-0.5527864045000419 1.7013016167040798 0.8944271909999156
          ]
        }
        coordIndex [
        25,21,23,27,29,-1,
19,21,25,-1,
17,23,21,-1,
13,27,23,-1,
11,29,27,-1,
15,25,29,-1,
5,1,15,-1,
3,7,19,-1,
6,2,17,-1,
0,4,13,-1,
8,9,11,-1,
7,6,17,21,19,-1,
2,0,13,23,17,-1,
4,8,11,27,13,-1,
9,5,15,29,11,-1,
28,26,22,20,24,-1,
24,20,18,-1,
20,22,16,-1,
22,26,12,-1,
26,28,10,-1,
28,24,14,-1,
14,1,5,-1,
18,7,3,-1,
16,2,6,-1,
12,4,0,-1,
10,9,8,-1,
14,24,18,3,1,-1,
18,20,16,6,7,-1,
16,22,12,0,2,-1,
12,26,10,8,4,-1,
10,28,14,5,9,-1,
3,19,30,-1,
19,25,30,-1,
25,15,30,-1,
15,1,30,-1,
1,3,30,-1
        ]
          colorIndex [
          0, 1, 2, 3, 4, 5, 6, 7, 8, 9, 10, 11, 12, 13, 14, 15, 16, 17, 18, 19, 20, 21, 22, 23, 24, 25, 26, 27, 28, 29, 30, 31, 32, 33, 34, 35
          ]
      }
    }
  ]
}
