#VRML V2.0 utf8
# Generated by Wagyx

Transform {
  scale 1 1 1
  translation 0 0 0
  children [
    Shape {
        appearance Appearance {
      material Material {
        shininess 1
        specularColor 1 1 1
      }
    }
      geometry IndexedFaceSet {
      solid FALSE
      convex FALSE
      creaseAngle 0
      colorPerVertex FALSE
        color Color {
            color [
            0.0 0.5019607843137255 0.0,
0.0 0.5019607843137255 0.0,
0.0 0.5019607843137255 0.0,
0.0 0.5019607843137255 0.0,
0.0 0.5019607843137255 0.0,
0.0 0.5019607843137255 0.0,
0.0 0.5019607843137255 0.0,
0.0 0.5019607843137255 0.0,
0.0 0.5019607843137255 0.0,
0.0 0.5019607843137255 0.0,
0.0 0.5019607843137255 0.0,
0.0 0.5019607843137255 0.0
            ]
      }
        coord Coordinate {
          point [
          0.9428090415820635 0.0 -0.6666666666666667,
-0.47140452079103173 -0.8164965809277261 -0.6666666666666667,
-0.47140452079103173 0.8164965809277261 -0.6666666666666667,
0.47140452079103173 0.8164965809277261 0.6666666666666667,
0.9428090415820635 -1.6329931618554523 -0.6666666666666667,
-0.9428090415820635 0.0 0.6666666666666667,
0.47140452079103173 -0.8164965809277261 0.6666666666666667,
-0.9428090415820635 1.6329931618554523 0.6666666666666667
          ]
        }
        coordIndex [
        0,1,2,-1,
0,3,6,-1,
0,2,3,-1,
1,0,4,-1,
1,4,6,-1,
4,0,6,-1,
2,1,5,-1,
6,3,5,-1,
5,1,6,-1,
3,7,5,-1,
2,5,7,-1,
3,2,7,-1
        ]
          colorIndex [
          0, 1, 2, 3, 4, 5, 6, 7, 8, 9, 10, 11
          ]
      }
    }
  ]
}
