#VRML V2.0 utf8
# Generated by Wagyx

Transform {
  scale 1 1 1
  translation 0 0 0
  children [
    Shape {
        appearance Appearance {
      material Material {
        shininess 1
        specularColor 1 1 1
      }
    }
      geometry IndexedFaceSet {
      solid FALSE
      convex FALSE
      creaseAngle 0
      colorPerVertex FALSE
        color Color {
            color [
            0.0 0.5019607843137255 0.0,
0.0 0.5019607843137255 0.0,
0.0 0.0 1.0,
0.0 0.0 1.0,
0.0 0.0 1.0
            ]
      }
        coord Coordinate {
          point [
          -0.7559289460184545 1.3093073414159544 1.3093073414159544,
-0.7559289460184545 1.3093073414159544 -1.3093073414159544,
-0.7559289460184545 -1.3093073414159544 1.3093073414159544,
-0.7559289460184545 -1.3093073414159544 -1.3093073414159544,
1.511857892036909 0.0 1.3093073414159544,
1.511857892036909 0.0 -1.3093073414159544
          ]
        }
        coordIndex [
        0,2,4,-1,
3,1,5,-1,
1,0,4,5,-1,
2,0,1,3,-1,
4,2,3,5,-1
        ]
          colorIndex [
          0, 1, 2, 3, 4
          ]
      }
    }
  ]
}
