#VRML V2.0 utf8
# Generated by Wagyx

Transform {
  scale 1 1 1
  translation 0 0 0
  children [
    Shape {
        appearance Appearance {
      material Material {
        shininess 1
        specularColor 1 1 1
      }
    }
      geometry IndexedFaceSet {
      solid FALSE
      convex FALSE
      creaseAngle 0
      colorPerVertex FALSE
        color Color {
            color [
            1.0 0.6470588235294118 0.0,
1.0 0.6470588235294118 0.0,
1.0 0.6470588235294118 0.0,
1.0 0.6470588235294118 0.0,
1.0 0.6470588235294118 0.0,
1.0 0.6470588235294118 0.0,
0.0 0.5019607843137255 0.0,
0.0 0.5019607843137255 0.0,
0.0 0.5019607843137255 0.0,
0.0 0.5019607843137255 0.0,
0.0 0.5019607843137255 0.0,
0.0 0.5019607843137255 0.0,
0.0 0.5019607843137255 0.0,
0.0 0.5019607843137255 0.0
            ]
      }
        coord Coordinate {
          point [
          1.3571966890916942 0.5621692754296406 1.3571966890916942,
1.3571966890916942 0.5621692754296406 -1.3571966890916942,
1.3571966890916942 -0.5621692754296406 1.3571966890916942,
1.3571966890916942 -0.5621692754296406 -1.3571966890916942,
-1.3571966890916942 0.5621692754296406 1.3571966890916942,
-1.3571966890916942 0.5621692754296406 -1.3571966890916942,
-1.3571966890916942 -0.5621692754296406 1.3571966890916942,
-1.3571966890916942 -0.5621692754296406 -1.3571966890916942,
1.3571966890916942 1.3571966890916942 0.5621692754296406,
1.3571966890916942 1.3571966890916942 -0.5621692754296406,
1.3571966890916942 -1.3571966890916942 0.5621692754296406,
1.3571966890916942 -1.3571966890916942 -0.5621692754296406,
-1.3571966890916942 1.3571966890916942 0.5621692754296406,
-1.3571966890916942 1.3571966890916942 -0.5621692754296406,
-1.3571966890916942 -1.3571966890916942 0.5621692754296406,
-1.3571966890916942 -1.3571966890916942 -0.5621692754296406,
0.5621692754296406 1.3571966890916942 1.3571966890916942,
0.5621692754296406 1.3571966890916942 -1.3571966890916942,
0.5621692754296406 -1.3571966890916942 1.3571966890916942,
0.5621692754296406 -1.3571966890916942 -1.3571966890916942,
-0.5621692754296406 1.3571966890916942 1.3571966890916942,
-0.5621692754296406 1.3571966890916942 -1.3571966890916942,
-0.5621692754296406 -1.3571966890916942 1.3571966890916942,
-0.5621692754296406 -1.3571966890916942 -1.3571966890916942
          ]
        }
        coordIndex [
        0,2,10,11,3,1,9,8,-1,
0,16,20,4,6,22,18,2,-1,
12,13,5,7,15,14,6,4,-1,
12,20,16,8,9,17,21,13,-1,
19,23,7,5,21,17,1,3,-1,
19,11,10,18,22,14,15,23,-1,
0,8,16,-1,
1,17,9,-1,
2,18,10,-1,
3,11,19,-1,
4,20,12,-1,
5,13,21,-1,
6,14,22,-1,
7,23,15,-1
        ]
          colorIndex [
          0, 1, 2, 3, 4, 5, 6, 7, 8, 9, 10, 11, 12, 13
          ]
      }
    }
  ]
}
